%YAML 1.1
%TAG !u! tag:unity3d.com,2011:
--- !u!1 &201306223770556546
GameObject:
  m_ObjectHideFlags: 0
  m_CorrespondingSourceObject: {fileID: 0}
  m_PrefabInstance: {fileID: 0}
  m_PrefabAsset: {fileID: 0}
  serializedVersion: 6
  m_Component:
  - component: {fileID: 3504194618824747875}
  - component: {fileID: 5549951964723682690}
  - component: {fileID: 792474303064159329}
  m_Layer: 0
  m_Name: Layer1
  m_TagString: Untagged
  m_Icon: {fileID: 0}
  m_NavMeshLayer: 0
  m_StaticEditorFlags: 0
  m_IsActive: 1
--- !u!4 &3504194618824747875
Transform:
  m_ObjectHideFlags: 0
  m_CorrespondingSourceObject: {fileID: 0}
  m_PrefabInstance: {fileID: 0}
  m_PrefabAsset: {fileID: 0}
  m_GameObject: {fileID: 201306223770556546}
  m_LocalRotation: {x: -0, y: -0, z: -0, w: 1}
  m_LocalPosition: {x: 0, y: 0, z: 0}
  m_LocalScale: {x: 1, y: 1, z: 1}
  m_Children: []
  m_Father: {fileID: 5529196535320031960}
  m_RootOrder: 0
  m_LocalEulerAnglesHint: {x: 0, y: 0, z: 0}
--- !u!1839735485 &5549951964723682690
Tilemap:
  m_ObjectHideFlags: 0
  m_CorrespondingSourceObject: {fileID: 0}
  m_PrefabInstance: {fileID: 0}
  m_PrefabAsset: {fileID: 0}
  m_GameObject: {fileID: 201306223770556546}
  m_Enabled: 1
  m_Tiles:
  - first: {x: 0, y: -7, z: 0}
    second:
      serializedVersion: 2
      m_TileIndex: 69
      m_TileSpriteIndex: 69
      m_TileMatrixIndex: 0
      m_TileColorIndex: 0
      m_TileObjectToInstantiateIndex: 65535
      dummyAlignment: 0
      m_AllTileFlags: 1073741825
  - first: {x: 1, y: -7, z: 0}
    second:
      serializedVersion: 2
      m_TileIndex: 70
      m_TileSpriteIndex: 70
      m_TileMatrixIndex: 0
      m_TileColorIndex: 0
      m_TileObjectToInstantiateIndex: 65535
      dummyAlignment: 0
      m_AllTileFlags: 1073741825
  - first: {x: 2, y: -7, z: 0}
    second:
      serializedVersion: 2
      m_TileIndex: 71
      m_TileSpriteIndex: 71
      m_TileMatrixIndex: 0
      m_TileColorIndex: 0
      m_TileObjectToInstantiateIndex: 65535
      dummyAlignment: 0
      m_AllTileFlags: 1073741825
  - first: {x: 3, y: -7, z: 0}
    second:
      serializedVersion: 2
      m_TileIndex: 72
      m_TileSpriteIndex: 72
      m_TileMatrixIndex: 0
      m_TileColorIndex: 0
      m_TileObjectToInstantiateIndex: 65535
      dummyAlignment: 0
      m_AllTileFlags: 1073741825
  - first: {x: 4, y: -7, z: 0}
    second:
      serializedVersion: 2
      m_TileIndex: 73
      m_TileSpriteIndex: 73
      m_TileMatrixIndex: 0
      m_TileColorIndex: 0
      m_TileObjectToInstantiateIndex: 65535
      dummyAlignment: 0
      m_AllTileFlags: 1073741825
  - first: {x: 5, y: -7, z: 0}
    second:
      serializedVersion: 2
      m_TileIndex: 74
      m_TileSpriteIndex: 74
      m_TileMatrixIndex: 0
      m_TileColorIndex: 0
      m_TileObjectToInstantiateIndex: 65535
      dummyAlignment: 0
      m_AllTileFlags: 1073741825
  - first: {x: 7, y: -7, z: 0}
    second:
      serializedVersion: 2
      m_TileIndex: 75
      m_TileSpriteIndex: 75
      m_TileMatrixIndex: 0
      m_TileColorIndex: 0
      m_TileObjectToInstantiateIndex: 65535
      dummyAlignment: 0
      m_AllTileFlags: 1073741825
  - first: {x: 5, y: -6, z: 0}
    second:
      serializedVersion: 2
      m_TileIndex: 66
      m_TileSpriteIndex: 66
      m_TileMatrixIndex: 0
      m_TileColorIndex: 0
      m_TileObjectToInstantiateIndex: 65535
      dummyAlignment: 0
      m_AllTileFlags: 1073741825
  - first: {x: 6, y: -6, z: 0}
    second:
      serializedVersion: 2
      m_TileIndex: 67
      m_TileSpriteIndex: 67
      m_TileMatrixIndex: 0
      m_TileColorIndex: 0
      m_TileObjectToInstantiateIndex: 65535
      dummyAlignment: 0
      m_AllTileFlags: 1073741825
  - first: {x: 7, y: -6, z: 0}
    second:
      serializedVersion: 2
      m_TileIndex: 68
      m_TileSpriteIndex: 68
      m_TileMatrixIndex: 0
      m_TileColorIndex: 0
      m_TileObjectToInstantiateIndex: 65535
      dummyAlignment: 0
      m_AllTileFlags: 1073741825
  - first: {x: -1, y: -5, z: 0}
    second:
      serializedVersion: 2
      m_TileIndex: 58
      m_TileSpriteIndex: 58
      m_TileMatrixIndex: 0
      m_TileColorIndex: 0
      m_TileObjectToInstantiateIndex: 65535
      dummyAlignment: 0
      m_AllTileFlags: 1073741825
  - first: {x: 0, y: -5, z: 0}
    second:
      serializedVersion: 2
      m_TileIndex: 59
      m_TileSpriteIndex: 59
      m_TileMatrixIndex: 0
      m_TileColorIndex: 0
      m_TileObjectToInstantiateIndex: 65535
      dummyAlignment: 0
      m_AllTileFlags: 1073741825
  - first: {x: 1, y: -5, z: 0}
    second:
      serializedVersion: 2
      m_TileIndex: 60
      m_TileSpriteIndex: 60
      m_TileMatrixIndex: 0
      m_TileColorIndex: 0
      m_TileObjectToInstantiateIndex: 65535
      dummyAlignment: 0
      m_AllTileFlags: 1073741825
  - first: {x: 2, y: -5, z: 0}
    second:
      serializedVersion: 2
      m_TileIndex: 61
      m_TileSpriteIndex: 61
      m_TileMatrixIndex: 0
      m_TileColorIndex: 0
      m_TileObjectToInstantiateIndex: 65535
      dummyAlignment: 0
      m_AllTileFlags: 1073741825
  - first: {x: 3, y: -5, z: 0}
    second:
      serializedVersion: 2
      m_TileIndex: 62
      m_TileSpriteIndex: 62
      m_TileMatrixIndex: 0
      m_TileColorIndex: 0
      m_TileObjectToInstantiateIndex: 65535
      dummyAlignment: 0
      m_AllTileFlags: 1073741825
  - first: {x: 5, y: -5, z: 0}
    second:
      serializedVersion: 2
      m_TileIndex: 63
      m_TileSpriteIndex: 63
      m_TileMatrixIndex: 0
      m_TileColorIndex: 0
      m_TileObjectToInstantiateIndex: 65535
      dummyAlignment: 0
      m_AllTileFlags: 1073741825
  - first: {x: 6, y: -5, z: 0}
    second:
      serializedVersion: 2
      m_TileIndex: 64
      m_TileSpriteIndex: 64
      m_TileMatrixIndex: 0
      m_TileColorIndex: 0
      m_TileObjectToInstantiateIndex: 65535
      dummyAlignment: 0
      m_AllTileFlags: 1073741825
  - first: {x: 7, y: -5, z: 0}
    second:
      serializedVersion: 2
      m_TileIndex: 65
      m_TileSpriteIndex: 65
      m_TileMatrixIndex: 0
      m_TileColorIndex: 0
      m_TileObjectToInstantiateIndex: 65535
      dummyAlignment: 0
      m_AllTileFlags: 1073741825
  - first: {x: -1, y: -4, z: 0}
    second:
      serializedVersion: 2
      m_TileIndex: 51
      m_TileSpriteIndex: 51
      m_TileMatrixIndex: 0
      m_TileColorIndex: 0
      m_TileObjectToInstantiateIndex: 65535
      dummyAlignment: 0
      m_AllTileFlags: 1073741825
  - first: {x: 0, y: -4, z: 0}
    second:
      serializedVersion: 2
      m_TileIndex: 52
      m_TileSpriteIndex: 52
      m_TileMatrixIndex: 0
      m_TileColorIndex: 0
      m_TileObjectToInstantiateIndex: 65535
      dummyAlignment: 0
      m_AllTileFlags: 1073741825
  - first: {x: 1, y: -4, z: 0}
    second:
      serializedVersion: 2
      m_TileIndex: 53
      m_TileSpriteIndex: 53
      m_TileMatrixIndex: 0
      m_TileColorIndex: 0
      m_TileObjectToInstantiateIndex: 65535
      dummyAlignment: 0
      m_AllTileFlags: 1073741825
  - first: {x: 2, y: -4, z: 0}
    second:
      serializedVersion: 2
      m_TileIndex: 54
      m_TileSpriteIndex: 54
      m_TileMatrixIndex: 0
      m_TileColorIndex: 0
      m_TileObjectToInstantiateIndex: 65535
      dummyAlignment: 0
      m_AllTileFlags: 1073741825
  - first: {x: 3, y: -4, z: 0}
    second:
      serializedVersion: 2
      m_TileIndex: 55
      m_TileSpriteIndex: 55
      m_TileMatrixIndex: 0
      m_TileColorIndex: 0
      m_TileObjectToInstantiateIndex: 65535
      dummyAlignment: 0
      m_AllTileFlags: 1073741825
  - first: {x: 6, y: -4, z: 0}
    second:
      serializedVersion: 2
      m_TileIndex: 56
      m_TileSpriteIndex: 56
      m_TileMatrixIndex: 0
      m_TileColorIndex: 0
      m_TileObjectToInstantiateIndex: 65535
      dummyAlignment: 0
      m_AllTileFlags: 1073741825
  - first: {x: 7, y: -4, z: 0}
    second:
      serializedVersion: 2
      m_TileIndex: 57
      m_TileSpriteIndex: 57
      m_TileMatrixIndex: 0
      m_TileColorIndex: 0
      m_TileObjectToInstantiateIndex: 65535
      dummyAlignment: 0
      m_AllTileFlags: 1073741825
  - first: {x: -2, y: -3, z: 0}
    second:
      serializedVersion: 2
      m_TileIndex: 42
      m_TileSpriteIndex: 42
      m_TileMatrixIndex: 0
      m_TileColorIndex: 0
      m_TileObjectToInstantiateIndex: 65535
      dummyAlignment: 0
      m_AllTileFlags: 1073741825
  - first: {x: -1, y: -3, z: 0}
    second:
      serializedVersion: 2
      m_TileIndex: 43
      m_TileSpriteIndex: 43
      m_TileMatrixIndex: 0
      m_TileColorIndex: 0
      m_TileObjectToInstantiateIndex: 65535
      dummyAlignment: 0
      m_AllTileFlags: 1073741825
  - first: {x: 0, y: -3, z: 0}
    second:
      serializedVersion: 2
      m_TileIndex: 44
      m_TileSpriteIndex: 44
      m_TileMatrixIndex: 0
      m_TileColorIndex: 0
      m_TileObjectToInstantiateIndex: 65535
      dummyAlignment: 0
      m_AllTileFlags: 1073741825
  - first: {x: 1, y: -3, z: 0}
    second:
      serializedVersion: 2
      m_TileIndex: 45
      m_TileSpriteIndex: 45
      m_TileMatrixIndex: 0
      m_TileColorIndex: 0
      m_TileObjectToInstantiateIndex: 65535
      dummyAlignment: 0
      m_AllTileFlags: 1073741825
  - first: {x: 2, y: -3, z: 0}
    second:
      serializedVersion: 2
      m_TileIndex: 46
      m_TileSpriteIndex: 46
      m_TileMatrixIndex: 0
      m_TileColorIndex: 0
      m_TileObjectToInstantiateIndex: 65535
      dummyAlignment: 0
      m_AllTileFlags: 1073741825
  - first: {x: 3, y: -3, z: 0}
    second:
      serializedVersion: 2
      m_TileIndex: 47
      m_TileSpriteIndex: 47
      m_TileMatrixIndex: 0
      m_TileColorIndex: 0
      m_TileObjectToInstantiateIndex: 65535
      dummyAlignment: 0
      m_AllTileFlags: 1073741825
  - first: {x: 4, y: -3, z: 0}
    second:
      serializedVersion: 2
      m_TileIndex: 48
      m_TileSpriteIndex: 48
      m_TileMatrixIndex: 0
      m_TileColorIndex: 0
      m_TileObjectToInstantiateIndex: 65535
      dummyAlignment: 0
      m_AllTileFlags: 1073741825
  - first: {x: 6, y: -3, z: 0}
    second:
      serializedVersion: 2
      m_TileIndex: 49
      m_TileSpriteIndex: 49
      m_TileMatrixIndex: 0
      m_TileColorIndex: 0
      m_TileObjectToInstantiateIndex: 65535
      dummyAlignment: 0
      m_AllTileFlags: 1073741825
  - first: {x: 7, y: -3, z: 0}
    second:
      serializedVersion: 2
      m_TileIndex: 50
      m_TileSpriteIndex: 50
      m_TileMatrixIndex: 0
      m_TileColorIndex: 0
      m_TileObjectToInstantiateIndex: 65535
      dummyAlignment: 0
      m_AllTileFlags: 1073741825
  - first: {x: -2, y: -2, z: 0}
    second:
      serializedVersion: 2
      m_TileIndex: 33
      m_TileSpriteIndex: 33
      m_TileMatrixIndex: 0
      m_TileColorIndex: 0
      m_TileObjectToInstantiateIndex: 65535
      dummyAlignment: 0
      m_AllTileFlags: 1073741825
  - first: {x: -1, y: -2, z: 0}
    second:
      serializedVersion: 2
      m_TileIndex: 34
      m_TileSpriteIndex: 34
      m_TileMatrixIndex: 0
      m_TileColorIndex: 0
      m_TileObjectToInstantiateIndex: 65535
      dummyAlignment: 0
      m_AllTileFlags: 1073741825
  - first: {x: 0, y: -2, z: 0}
    second:
      serializedVersion: 2
      m_TileIndex: 35
      m_TileSpriteIndex: 35
      m_TileMatrixIndex: 0
      m_TileColorIndex: 0
      m_TileObjectToInstantiateIndex: 65535
      dummyAlignment: 0
      m_AllTileFlags: 1073741825
  - first: {x: 1, y: -2, z: 0}
    second:
      serializedVersion: 2
      m_TileIndex: 36
      m_TileSpriteIndex: 36
      m_TileMatrixIndex: 0
      m_TileColorIndex: 0
      m_TileObjectToInstantiateIndex: 65535
      dummyAlignment: 0
      m_AllTileFlags: 1073741825
  - first: {x: 2, y: -2, z: 0}
    second:
      serializedVersion: 2
      m_TileIndex: 37
      m_TileSpriteIndex: 37
      m_TileMatrixIndex: 0
      m_TileColorIndex: 0
      m_TileObjectToInstantiateIndex: 65535
      dummyAlignment: 0
      m_AllTileFlags: 1073741825
  - first: {x: 3, y: -2, z: 0}
    second:
      serializedVersion: 2
      m_TileIndex: 38
      m_TileSpriteIndex: 38
      m_TileMatrixIndex: 0
      m_TileColorIndex: 0
      m_TileObjectToInstantiateIndex: 65535
      dummyAlignment: 0
      m_AllTileFlags: 1073741825
  - first: {x: 4, y: -2, z: 0}
    second:
      serializedVersion: 2
      m_TileIndex: 39
      m_TileSpriteIndex: 39
      m_TileMatrixIndex: 0
      m_TileColorIndex: 0
      m_TileObjectToInstantiateIndex: 65535
      dummyAlignment: 0
      m_AllTileFlags: 1073741825
  - first: {x: 6, y: -2, z: 0}
    second:
      serializedVersion: 2
      m_TileIndex: 40
      m_TileSpriteIndex: 40
      m_TileMatrixIndex: 0
      m_TileColorIndex: 0
      m_TileObjectToInstantiateIndex: 65535
      dummyAlignment: 0
      m_AllTileFlags: 1073741825
  - first: {x: 7, y: -2, z: 0}
    second:
      serializedVersion: 2
      m_TileIndex: 41
      m_TileSpriteIndex: 41
      m_TileMatrixIndex: 0
      m_TileColorIndex: 0
      m_TileObjectToInstantiateIndex: 65535
      dummyAlignment: 0
      m_AllTileFlags: 1073741825
  - first: {x: 8, y: -2, z: 0}
    second:
      serializedVersion: 2
      m_TileIndex: 79
      m_TileSpriteIndex: 79
      m_TileMatrixIndex: 0
      m_TileColorIndex: 0
      m_TileObjectToInstantiateIndex: 65535
      dummyAlignment: 0
      m_AllTileFlags: 1073741825
  - first: {x: -2, y: -1, z: 0}
    second:
      serializedVersion: 2
      m_TileIndex: 24
      m_TileSpriteIndex: 24
      m_TileMatrixIndex: 0
      m_TileColorIndex: 0
      m_TileObjectToInstantiateIndex: 65535
      dummyAlignment: 0
      m_AllTileFlags: 1073741825
  - first: {x: -1, y: -1, z: 0}
    second:
      serializedVersion: 2
      m_TileIndex: 25
      m_TileSpriteIndex: 25
      m_TileMatrixIndex: 0
      m_TileColorIndex: 0
      m_TileObjectToInstantiateIndex: 65535
      dummyAlignment: 0
      m_AllTileFlags: 1073741825
  - first: {x: 0, y: -1, z: 0}
    second:
      serializedVersion: 2
      m_TileIndex: 26
      m_TileSpriteIndex: 26
      m_TileMatrixIndex: 0
      m_TileColorIndex: 0
      m_TileObjectToInstantiateIndex: 65535
      dummyAlignment: 0
      m_AllTileFlags: 1073741825
  - first: {x: 1, y: -1, z: 0}
    second:
      serializedVersion: 2
      m_TileIndex: 27
      m_TileSpriteIndex: 27
      m_TileMatrixIndex: 0
      m_TileColorIndex: 0
      m_TileObjectToInstantiateIndex: 65535
      dummyAlignment: 0
      m_AllTileFlags: 1073741825
  - first: {x: 2, y: -1, z: 0}
    second:
      serializedVersion: 2
      m_TileIndex: 28
      m_TileSpriteIndex: 28
      m_TileMatrixIndex: 0
      m_TileColorIndex: 0
      m_TileObjectToInstantiateIndex: 65535
      dummyAlignment: 0
      m_AllTileFlags: 1073741825
  - first: {x: 3, y: -1, z: 0}
    second:
      serializedVersion: 2
      m_TileIndex: 29
      m_TileSpriteIndex: 29
      m_TileMatrixIndex: 0
      m_TileColorIndex: 0
      m_TileObjectToInstantiateIndex: 65535
      dummyAlignment: 0
      m_AllTileFlags: 1073741825
  - first: {x: 4, y: -1, z: 0}
    second:
      serializedVersion: 2
      m_TileIndex: 30
      m_TileSpriteIndex: 30
      m_TileMatrixIndex: 0
      m_TileColorIndex: 0
      m_TileObjectToInstantiateIndex: 65535
      dummyAlignment: 0
      m_AllTileFlags: 1073741825
  - first: {x: 6, y: -1, z: 0}
    second:
      serializedVersion: 2
      m_TileIndex: 31
      m_TileSpriteIndex: 31
      m_TileMatrixIndex: 0
      m_TileColorIndex: 0
      m_TileObjectToInstantiateIndex: 65535
      dummyAlignment: 0
      m_AllTileFlags: 1073741825
  - first: {x: 7, y: -1, z: 0}
    second:
      serializedVersion: 2
      m_TileIndex: 32
      m_TileSpriteIndex: 32
      m_TileMatrixIndex: 0
      m_TileColorIndex: 0
      m_TileObjectToInstantiateIndex: 65535
      dummyAlignment: 0
      m_AllTileFlags: 1073741825
  - first: {x: 8, y: -1, z: 0}
    second:
      serializedVersion: 2
      m_TileIndex: 78
      m_TileSpriteIndex: 78
      m_TileMatrixIndex: 0
      m_TileColorIndex: 0
      m_TileObjectToInstantiateIndex: 65535
      dummyAlignment: 0
      m_AllTileFlags: 1073741825
  - first: {x: -2, y: 0, z: 0}
    second:
      serializedVersion: 2
      m_TileIndex: 14
      m_TileSpriteIndex: 14
      m_TileMatrixIndex: 0
      m_TileColorIndex: 0
      m_TileObjectToInstantiateIndex: 65535
      dummyAlignment: 0
      m_AllTileFlags: 1073741825
  - first: {x: -1, y: 0, z: 0}
    second:
      serializedVersion: 2
      m_TileIndex: 15
      m_TileSpriteIndex: 15
      m_TileMatrixIndex: 0
      m_TileColorIndex: 0
      m_TileObjectToInstantiateIndex: 65535
      dummyAlignment: 0
      m_AllTileFlags: 1073741825
  - first: {x: 0, y: 0, z: 0}
    second:
      serializedVersion: 2
      m_TileIndex: 16
      m_TileSpriteIndex: 16
      m_TileMatrixIndex: 0
      m_TileColorIndex: 0
      m_TileObjectToInstantiateIndex: 65535
      dummyAlignment: 0
      m_AllTileFlags: 1073741825
  - first: {x: 1, y: 0, z: 0}
    second:
      serializedVersion: 2
      m_TileIndex: 17
      m_TileSpriteIndex: 17
      m_TileMatrixIndex: 0
      m_TileColorIndex: 0
      m_TileObjectToInstantiateIndex: 65535
      dummyAlignment: 0
      m_AllTileFlags: 1073741825
  - first: {x: 2, y: 0, z: 0}
    second:
      serializedVersion: 2
      m_TileIndex: 18
      m_TileSpriteIndex: 18
      m_TileMatrixIndex: 0
      m_TileColorIndex: 0
      m_TileObjectToInstantiateIndex: 65535
      dummyAlignment: 0
      m_AllTileFlags: 1073741825
  - first: {x: 3, y: 0, z: 0}
    second:
      serializedVersion: 2
      m_TileIndex: 19
      m_TileSpriteIndex: 19
      m_TileMatrixIndex: 0
      m_TileColorIndex: 0
      m_TileObjectToInstantiateIndex: 65535
      dummyAlignment: 0
      m_AllTileFlags: 1073741825
  - first: {x: 4, y: 0, z: 0}
    second:
      serializedVersion: 2
      m_TileIndex: 20
      m_TileSpriteIndex: 20
      m_TileMatrixIndex: 0
      m_TileColorIndex: 0
      m_TileObjectToInstantiateIndex: 65535
      dummyAlignment: 0
      m_AllTileFlags: 1073741825
  - first: {x: 5, y: 0, z: 0}
    second:
      serializedVersion: 2
      m_TileIndex: 21
      m_TileSpriteIndex: 21
      m_TileMatrixIndex: 0
      m_TileColorIndex: 0
      m_TileObjectToInstantiateIndex: 65535
      dummyAlignment: 0
      m_AllTileFlags: 1073741825
  - first: {x: 6, y: 0, z: 0}
    second:
      serializedVersion: 2
      m_TileIndex: 22
      m_TileSpriteIndex: 22
      m_TileMatrixIndex: 0
      m_TileColorIndex: 0
      m_TileObjectToInstantiateIndex: 65535
      dummyAlignment: 0
      m_AllTileFlags: 1073741825
  - first: {x: 7, y: 0, z: 0}
    second:
      serializedVersion: 2
      m_TileIndex: 23
      m_TileSpriteIndex: 23
      m_TileMatrixIndex: 0
      m_TileColorIndex: 0
      m_TileObjectToInstantiateIndex: 65535
      dummyAlignment: 0
      m_AllTileFlags: 1073741825
  - first: {x: -2, y: 1, z: 0}
    second:
      serializedVersion: 2
      m_TileIndex: 7
      m_TileSpriteIndex: 7
      m_TileMatrixIndex: 0
      m_TileColorIndex: 0
      m_TileObjectToInstantiateIndex: 65535
      dummyAlignment: 0
      m_AllTileFlags: 1073741825
  - first: {x: -1, y: 1, z: 0}
    second:
      serializedVersion: 2
      m_TileIndex: 8
      m_TileSpriteIndex: 8
      m_TileMatrixIndex: 0
      m_TileColorIndex: 0
      m_TileObjectToInstantiateIndex: 65535
      dummyAlignment: 0
      m_AllTileFlags: 1073741825
  - first: {x: 0, y: 1, z: 0}
    second:
      serializedVersion: 2
      m_TileIndex: 9
      m_TileSpriteIndex: 9
      m_TileMatrixIndex: 0
      m_TileColorIndex: 0
      m_TileObjectToInstantiateIndex: 65535
      dummyAlignment: 0
      m_AllTileFlags: 1073741825
  - first: {x: 1, y: 1, z: 0}
    second:
      serializedVersion: 2
      m_TileIndex: 10
      m_TileSpriteIndex: 10
      m_TileMatrixIndex: 0
      m_TileColorIndex: 0
      m_TileObjectToInstantiateIndex: 65535
      dummyAlignment: 0
      m_AllTileFlags: 1073741825
  - first: {x: 2, y: 1, z: 0}
    second:
      serializedVersion: 2
      m_TileIndex: 11
      m_TileSpriteIndex: 11
      m_TileMatrixIndex: 0
      m_TileColorIndex: 0
      m_TileObjectToInstantiateIndex: 65535
      dummyAlignment: 0
      m_AllTileFlags: 1073741825
  - first: {x: 3, y: 1, z: 0}
    second:
      serializedVersion: 2
      m_TileIndex: 12
      m_TileSpriteIndex: 12
      m_TileMatrixIndex: 0
      m_TileColorIndex: 0
      m_TileObjectToInstantiateIndex: 65535
      dummyAlignment: 0
      m_AllTileFlags: 1073741825
  - first: {x: 4, y: 1, z: 0}
    second:
      serializedVersion: 2
      m_TileIndex: 13
      m_TileSpriteIndex: 13
      m_TileMatrixIndex: 0
      m_TileColorIndex: 0
      m_TileObjectToInstantiateIndex: 65535
      dummyAlignment: 0
      m_AllTileFlags: 1073741825
  - first: {x: 7, y: 1, z: 0}
    second:
      serializedVersion: 2
      m_TileIndex: 77
      m_TileSpriteIndex: 77
      m_TileMatrixIndex: 0
      m_TileColorIndex: 0
      m_TileObjectToInstantiateIndex: 65535
      dummyAlignment: 0
      m_AllTileFlags: 1073741825
  - first: {x: -2, y: 2, z: 0}
    second:
      serializedVersion: 2
      m_TileIndex: 0
      m_TileSpriteIndex: 0
      m_TileMatrixIndex: 0
      m_TileColorIndex: 0
      m_TileObjectToInstantiateIndex: 65535
      dummyAlignment: 0
      m_AllTileFlags: 1073741825
  - first: {x: -1, y: 2, z: 0}
    second:
      serializedVersion: 2
      m_TileIndex: 1
      m_TileSpriteIndex: 1
      m_TileMatrixIndex: 0
      m_TileColorIndex: 0
      m_TileObjectToInstantiateIndex: 65535
      dummyAlignment: 0
      m_AllTileFlags: 1073741825
  - first: {x: 0, y: 2, z: 0}
    second:
      serializedVersion: 2
      m_TileIndex: 2
      m_TileSpriteIndex: 2
      m_TileMatrixIndex: 0
      m_TileColorIndex: 0
      m_TileObjectToInstantiateIndex: 65535
      dummyAlignment: 0
      m_AllTileFlags: 1073741825
  - first: {x: 1, y: 2, z: 0}
    second:
      serializedVersion: 2
      m_TileIndex: 3
      m_TileSpriteIndex: 3
      m_TileMatrixIndex: 0
      m_TileColorIndex: 0
      m_TileObjectToInstantiateIndex: 65535
      dummyAlignment: 0
      m_AllTileFlags: 1073741825
  - first: {x: 2, y: 2, z: 0}
    second:
      serializedVersion: 2
      m_TileIndex: 4
      m_TileSpriteIndex: 4
      m_TileMatrixIndex: 0
      m_TileColorIndex: 0
      m_TileObjectToInstantiateIndex: 65535
      dummyAlignment: 0
      m_AllTileFlags: 1073741825
  - first: {x: 3, y: 2, z: 0}
    second:
      serializedVersion: 2
      m_TileIndex: 5
      m_TileSpriteIndex: 5
      m_TileMatrixIndex: 0
      m_TileColorIndex: 0
      m_TileObjectToInstantiateIndex: 65535
      dummyAlignment: 0
      m_AllTileFlags: 1073741825
  - first: {x: 4, y: 2, z: 0}
    second:
      serializedVersion: 2
      m_TileIndex: 6
      m_TileSpriteIndex: 6
      m_TileMatrixIndex: 0
      m_TileColorIndex: 0
      m_TileObjectToInstantiateIndex: 65535
      dummyAlignment: 0
      m_AllTileFlags: 1073741825
  - first: {x: 7, y: 2, z: 0}
    second:
      serializedVersion: 2
      m_TileIndex: 76
      m_TileSpriteIndex: 76
      m_TileMatrixIndex: 0
      m_TileColorIndex: 0
      m_TileObjectToInstantiateIndex: 65535
      dummyAlignment: 0
      m_AllTileFlags: 1073741825
  m_AnimatedTiles: {}
  m_TileAssetArray:
  - m_RefCount: 1
    m_Data: {fileID: 11400000, guid: e422ed72b42287348b7c1b173794fa2f, type: 2}
  - m_RefCount: 1
    m_Data: {fileID: 11400000, guid: 66f1a19e071df5d4e925ec5bdf8c04f8, type: 2}
  - m_RefCount: 1
    m_Data: {fileID: 11400000, guid: 557b49889d8a71840aa12c335235920a, type: 2}
  - m_RefCount: 1
    m_Data: {fileID: 11400000, guid: 7be2793efd8955f4f8a224f699941a57, type: 2}
  - m_RefCount: 1
    m_Data: {fileID: 11400000, guid: 8547b34175cc82d4a84973fcdb2515e3, type: 2}
  - m_RefCount: 1
    m_Data: {fileID: 11400000, guid: e57b60dc0f2631a4f8bc18a186bbb233, type: 2}
  - m_RefCount: 1
    m_Data: {fileID: 11400000, guid: c6bc864593bfdbe4b9cafe704197d4a0, type: 2}
  - m_RefCount: 1
    m_Data: {fileID: 11400000, guid: f7db529f4cd4ae848b83fd547de3192d, type: 2}
  - m_RefCount: 1
    m_Data: {fileID: 11400000, guid: dffa9f9eb7849b244a17a34a7b462bcc, type: 2}
  - m_RefCount: 1
    m_Data: {fileID: 11400000, guid: 8476a807ffef474458cab9d8c6a2a6ce, type: 2}
  - m_RefCount: 1
    m_Data: {fileID: 11400000, guid: f8170fbadfc676940b755c2a11bd5d49, type: 2}
  - m_RefCount: 1
    m_Data: {fileID: 11400000, guid: 2cfa2114b2850374297a2230b6de47f1, type: 2}
  - m_RefCount: 1
    m_Data: {fileID: 11400000, guid: 191e2517f00b8184cbb94f2dce5e2c41, type: 2}
  - m_RefCount: 1
    m_Data: {fileID: 11400000, guid: a4f32574ec0fc234496a71987049b7a0, type: 2}
  - m_RefCount: 1
    m_Data: {fileID: 11400000, guid: 70e70ad02e3313043a84bd608bfca898, type: 2}
  - m_RefCount: 1
    m_Data: {fileID: 11400000, guid: 0801789ebeeb9cb4db32e56d03e45a5a, type: 2}
  - m_RefCount: 1
    m_Data: {fileID: 11400000, guid: ca76e2f3e1b6a2848b963999d409d9fe, type: 2}
  - m_RefCount: 1
    m_Data: {fileID: 11400000, guid: 5b267f7b891608a4fb70b972079c6ee6, type: 2}
  - m_RefCount: 1
    m_Data: {fileID: 11400000, guid: 04ba3f0e165338445a64a6a646fa35ab, type: 2}
  - m_RefCount: 1
    m_Data: {fileID: 11400000, guid: 07eff8501003ed04681bc056aaacdfd5, type: 2}
  - m_RefCount: 1
    m_Data: {fileID: 11400000, guid: 12ccce1945014804eb8b3bc96e49181d, type: 2}
  - m_RefCount: 1
    m_Data: {fileID: 11400000, guid: 8abd8173798e4e441a2ad536519e1780, type: 2}
  - m_RefCount: 1
    m_Data: {fileID: 11400000, guid: cdb605d0f9c1f364ea6f33ed6205343c, type: 2}
  - m_RefCount: 1
    m_Data: {fileID: 11400000, guid: 27220290735c6654d9cf6eb2a758b6a0, type: 2}
  - m_RefCount: 1
    m_Data: {fileID: 11400000, guid: 753a74e33bdb4d34c8dd65d9480c45d3, type: 2}
  - m_RefCount: 1
    m_Data: {fileID: 11400000, guid: 3b540a2e3f7443d4188152d52aa2cc2d, type: 2}
  - m_RefCount: 1
    m_Data: {fileID: 11400000, guid: 96f1bdb9e1af8e7448af21f479791147, type: 2}
  - m_RefCount: 1
    m_Data: {fileID: 11400000, guid: 5230e06f23cf67d42a996cbd8250acca, type: 2}
  - m_RefCount: 1
    m_Data: {fileID: 11400000, guid: 7aeb884a703cc8a4b92800e739d4c374, type: 2}
  - m_RefCount: 1
    m_Data: {fileID: 11400000, guid: 56c38c8b6eeece9409f66606962501b1, type: 2}
  - m_RefCount: 1
    m_Data: {fileID: 11400000, guid: dd5b9d4aa378c8a4da3a8abb143ac1a1, type: 2}
  - m_RefCount: 1
    m_Data: {fileID: 11400000, guid: 2132f1c541e2998429e8e9902be7a5e6, type: 2}
  - m_RefCount: 1
    m_Data: {fileID: 11400000, guid: 44945c9f294432147ab20d99b1bbcf3c, type: 2}
  - m_RefCount: 1
    m_Data: {fileID: 11400000, guid: 7e45f7ac4512d8147a4ed1af2f6ccd35, type: 2}
  - m_RefCount: 1
    m_Data: {fileID: 11400000, guid: 3ffd7c82c27c1ca45b17875933232a45, type: 2}
  - m_RefCount: 1
    m_Data: {fileID: 11400000, guid: 3e7b51e856077a848b5c7be55b5a384a, type: 2}
  - m_RefCount: 1
    m_Data: {fileID: 11400000, guid: 4a342eccffe7c3746aceeaaed76a57aa, type: 2}
  - m_RefCount: 1
    m_Data: {fileID: 11400000, guid: d8c33fd88f618594381fa65a15909d79, type: 2}
  - m_RefCount: 1
    m_Data: {fileID: 11400000, guid: 75934099d47b88940a544077cc830568, type: 2}
  - m_RefCount: 1
    m_Data: {fileID: 11400000, guid: 98c3f651898d1824ebfe8b3e40251bb7, type: 2}
  - m_RefCount: 1
    m_Data: {fileID: 11400000, guid: 37d81bc852803d04090ab567411b3a41, type: 2}
  - m_RefCount: 1
    m_Data: {fileID: 11400000, guid: b5f94ebea1a65ec408c166d4c028f744, type: 2}
  - m_RefCount: 1
    m_Data: {fileID: 11400000, guid: f1394dfda86299d4da16c48cb8494832, type: 2}
  - m_RefCount: 1
    m_Data: {fileID: 11400000, guid: 533f576a8dc46fe42a7d6c890a85c83f, type: 2}
  - m_RefCount: 1
    m_Data: {fileID: 11400000, guid: e46002d27c516274ea04369fa484c95a, type: 2}
  - m_RefCount: 1
    m_Data: {fileID: 11400000, guid: 4d3b7c8c18edcff40832e535deed2f8f, type: 2}
  - m_RefCount: 1
    m_Data: {fileID: 11400000, guid: 438811c6aade6594c98d168254fed7ba, type: 2}
  - m_RefCount: 1
    m_Data: {fileID: 11400000, guid: facae33535c84af4cb536c36e00dc750, type: 2}
  - m_RefCount: 1
    m_Data: {fileID: 11400000, guid: e75584fbb73c7db48a6ee343f2443f61, type: 2}
  - m_RefCount: 1
    m_Data: {fileID: 11400000, guid: 78890260114ed1f4d912b6c20aeaef01, type: 2}
  - m_RefCount: 1
    m_Data: {fileID: 11400000, guid: b81f49c6d95e6f04796ae5f19d61d876, type: 2}
  - m_RefCount: 1
    m_Data: {fileID: 11400000, guid: d47907b38e5d91f4a92e3147ec5229d4, type: 2}
  - m_RefCount: 1
    m_Data: {fileID: 11400000, guid: 135cb01b173f6f842942c4bf5b3bf489, type: 2}
  - m_RefCount: 1
    m_Data: {fileID: 11400000, guid: 748fc569eaf25734f94ac4573f8ffa35, type: 2}
  - m_RefCount: 1
    m_Data: {fileID: 11400000, guid: c1593beaf41b6ef498f588355ba9b596, type: 2}
  - m_RefCount: 1
    m_Data: {fileID: 11400000, guid: dc4368b179a7eb349b00835550f80df3, type: 2}
  - m_RefCount: 1
    m_Data: {fileID: 11400000, guid: 0d25e86ef513a59498552d14927f222c, type: 2}
  - m_RefCount: 1
    m_Data: {fileID: 11400000, guid: 1b38662bea1472c4cb8c7258b2091767, type: 2}
  - m_RefCount: 1
    m_Data: {fileID: 11400000, guid: ccb0696a8f9e5e24c9ab40304e06a038, type: 2}
  - m_RefCount: 1
    m_Data: {fileID: 11400000, guid: b3b6986f6f3e09444a6a12056e4fcf42, type: 2}
  - m_RefCount: 1
    m_Data: {fileID: 11400000, guid: 2f336f712622d524ab24b7b6f75fa2c2, type: 2}
  - m_RefCount: 1
    m_Data: {fileID: 11400000, guid: fe5e9d7a36c60e948a72e67d294e78de, type: 2}
  - m_RefCount: 1
    m_Data: {fileID: 11400000, guid: c46f6a0acf366d940b4827527949e107, type: 2}
  - m_RefCount: 1
    m_Data: {fileID: 11400000, guid: 6baaf8183ad8d1e418a8656b293ea8ca, type: 2}
  - m_RefCount: 1
    m_Data: {fileID: 11400000, guid: 0e330af1c61adc94ca1752437ccab3cc, type: 2}
  - m_RefCount: 1
    m_Data: {fileID: 11400000, guid: 269f7265599304144855b02856c4d68d, type: 2}
  - m_RefCount: 1
    m_Data: {fileID: 11400000, guid: 962466a1aed84fd45bbe07a900052743, type: 2}
  - m_RefCount: 1
    m_Data: {fileID: 11400000, guid: f42f8cb8371eaef4badcd7732e7a5818, type: 2}
  - m_RefCount: 1
    m_Data: {fileID: 11400000, guid: fae3d1b20918aa947bd338fe056e4c51, type: 2}
  - m_RefCount: 1
    m_Data: {fileID: 11400000, guid: 1f8a1e399bf642e478238995d566f89e, type: 2}
  - m_RefCount: 1
    m_Data: {fileID: 11400000, guid: e2096899d5c71e74e8a0271c2e300f3a, type: 2}
  - m_RefCount: 1
    m_Data: {fileID: 11400000, guid: 816c87cb1dc8d8e40b4d5bd7ce1019d7, type: 2}
  - m_RefCount: 1
    m_Data: {fileID: 11400000, guid: bab44e0edefadd243be2e4e7601b507e, type: 2}
  - m_RefCount: 1
    m_Data: {fileID: 11400000, guid: 0278acfcf4af64f428af3cc352a10b39, type: 2}
  - m_RefCount: 1
    m_Data: {fileID: 11400000, guid: e0fbf80d55ef44948820a3b87631f986, type: 2}
  - m_RefCount: 1
    m_Data: {fileID: 11400000, guid: 4f9246fa78aa4cc4ba98ca962e319ac4, type: 2}
  - m_RefCount: 1
    m_Data: {fileID: 11400000, guid: 49597248cddc921409aa578202e67173, type: 2}
  - m_RefCount: 1
    m_Data: {fileID: 11400000, guid: b9ec4df79aa627a41bd486f975f8a6a7, type: 2}
  - m_RefCount: 1
    m_Data: {fileID: 11400000, guid: 3786df864bec0b941b7708d2e5fd8c0b, type: 2}
  - m_RefCount: 1
    m_Data: {fileID: 11400000, guid: a3253ba0264cdcb46af27f12a3d1e5c6, type: 2}
  m_TileSpriteArray:
  - m_RefCount: 1
    m_Data: {fileID: 4056067092794331756, guid: 684c12404947a034b8bc8ebd358203b2, type: 3}
  - m_RefCount: 1
    m_Data: {fileID: 679640718076513166, guid: 684c12404947a034b8bc8ebd358203b2, type: 3}
  - m_RefCount: 1
    m_Data: {fileID: 4075359979036393304, guid: 684c12404947a034b8bc8ebd358203b2, type: 3}
  - m_RefCount: 1
    m_Data: {fileID: -6684649216394539224, guid: 684c12404947a034b8bc8ebd358203b2, type: 3}
  - m_RefCount: 1
    m_Data: {fileID: 4149528900238949949, guid: 684c12404947a034b8bc8ebd358203b2, type: 3}
  - m_RefCount: 1
    m_Data: {fileID: 9002137706444804037, guid: 684c12404947a034b8bc8ebd358203b2, type: 3}
  - m_RefCount: 1
    m_Data: {fileID: 5057383376712973714, guid: 684c12404947a034b8bc8ebd358203b2, type: 3}
  - m_RefCount: 1
    m_Data: {fileID: 440400757219452649, guid: 684c12404947a034b8bc8ebd358203b2, type: 3}
  - m_RefCount: 1
    m_Data: {fileID: -6942921846532096238, guid: 684c12404947a034b8bc8ebd358203b2, type: 3}
  - m_RefCount: 1
    m_Data: {fileID: -5359132052189433420, guid: 684c12404947a034b8bc8ebd358203b2, type: 3}
  - m_RefCount: 1
    m_Data: {fileID: 8735423889326751300, guid: 684c12404947a034b8bc8ebd358203b2, type: 3}
  - m_RefCount: 1
    m_Data: {fileID: 7385825535870903775, guid: 684c12404947a034b8bc8ebd358203b2, type: 3}
  - m_RefCount: 1
    m_Data: {fileID: 703480975669489895, guid: 684c12404947a034b8bc8ebd358203b2, type: 3}
  - m_RefCount: 1
    m_Data: {fileID: 2389674331898098936, guid: 684c12404947a034b8bc8ebd358203b2, type: 3}
  - m_RefCount: 1
    m_Data: {fileID: -2534959583060493233, guid: 684c12404947a034b8bc8ebd358203b2, type: 3}
  - m_RefCount: 1
    m_Data: {fileID: -72542985091963511, guid: 684c12404947a034b8bc8ebd358203b2, type: 3}
  - m_RefCount: 1
    m_Data: {fileID: 2185102369259056546, guid: 684c12404947a034b8bc8ebd358203b2, type: 3}
  - m_RefCount: 1
    m_Data: {fileID: 4133484192444258835, guid: 684c12404947a034b8bc8ebd358203b2, type: 3}
  - m_RefCount: 1
    m_Data: {fileID: -7419827736682174526, guid: 684c12404947a034b8bc8ebd358203b2, type: 3}
  - m_RefCount: 1
    m_Data: {fileID: -4260065144680007767, guid: 684c12404947a034b8bc8ebd358203b2, type: 3}
  - m_RefCount: 1
    m_Data: {fileID: -7140091794358712585, guid: 684c12404947a034b8bc8ebd358203b2, type: 3}
  - m_RefCount: 1
    m_Data: {fileID: 3555909387430744002, guid: 684c12404947a034b8bc8ebd358203b2, type: 3}
  - m_RefCount: 1
    m_Data: {fileID: -7481409237941502490, guid: 684c12404947a034b8bc8ebd358203b2, type: 3}
  - m_RefCount: 1
    m_Data: {fileID: 6965691007474085524, guid: 684c12404947a034b8bc8ebd358203b2, type: 3}
  - m_RefCount: 1
    m_Data: {fileID: 4868580031489661071, guid: 684c12404947a034b8bc8ebd358203b2, type: 3}
  - m_RefCount: 1
    m_Data: {fileID: 8915799826350146799, guid: 684c12404947a034b8bc8ebd358203b2, type: 3}
  - m_RefCount: 1
    m_Data: {fileID: -8604842247873350794, guid: 684c12404947a034b8bc8ebd358203b2, type: 3}
  - m_RefCount: 1
    m_Data: {fileID: -5073970043817967731, guid: 684c12404947a034b8bc8ebd358203b2, type: 3}
  - m_RefCount: 1
    m_Data: {fileID: -7296585833586537849, guid: 684c12404947a034b8bc8ebd358203b2, type: 3}
  - m_RefCount: 1
    m_Data: {fileID: 5345264514590065782, guid: 684c12404947a034b8bc8ebd358203b2, type: 3}
  - m_RefCount: 1
    m_Data: {fileID: -3598261534757241051, guid: 684c12404947a034b8bc8ebd358203b2, type: 3}
  - m_RefCount: 1
    m_Data: {fileID: 4334071048896043841, guid: 684c12404947a034b8bc8ebd358203b2, type: 3}
  - m_RefCount: 1
    m_Data: {fileID: 6993134553306754410, guid: 684c12404947a034b8bc8ebd358203b2, type: 3}
  - m_RefCount: 1
    m_Data: {fileID: -5117462163744418078, guid: 684c12404947a034b8bc8ebd358203b2, type: 3}
  - m_RefCount: 1
    m_Data: {fileID: 3603761074361099944, guid: 684c12404947a034b8bc8ebd358203b2, type: 3}
  - m_RefCount: 1
    m_Data: {fileID: -4044555575239599319, guid: 684c12404947a034b8bc8ebd358203b2, type: 3}
  - m_RefCount: 1
    m_Data: {fileID: 921484117565974114, guid: 684c12404947a034b8bc8ebd358203b2, type: 3}
  - m_RefCount: 1
    m_Data: {fileID: -2898300472337543698, guid: 684c12404947a034b8bc8ebd358203b2, type: 3}
  - m_RefCount: 1
    m_Data: {fileID: -1496059286228165744, guid: 684c12404947a034b8bc8ebd358203b2, type: 3}
  - m_RefCount: 1
    m_Data: {fileID: -5325620009183581253, guid: 684c12404947a034b8bc8ebd358203b2, type: 3}
  - m_RefCount: 1
    m_Data: {fileID: -3188241144974587450, guid: 684c12404947a034b8bc8ebd358203b2, type: 3}
  - m_RefCount: 1
    m_Data: {fileID: 6733736953127269626, guid: 684c12404947a034b8bc8ebd358203b2, type: 3}
  - m_RefCount: 1
    m_Data: {fileID: 215081248255272725, guid: 684c12404947a034b8bc8ebd358203b2, type: 3}
  - m_RefCount: 1
    m_Data: {fileID: -8356243775673303906, guid: 684c12404947a034b8bc8ebd358203b2, type: 3}
  - m_RefCount: 1
    m_Data: {fileID: -4686635958606019606, guid: 684c12404947a034b8bc8ebd358203b2, type: 3}
  - m_RefCount: 1
    m_Data: {fileID: -4232142115180866496, guid: 684c12404947a034b8bc8ebd358203b2, type: 3}
  - m_RefCount: 1
    m_Data: {fileID: 1572488666804605432, guid: 684c12404947a034b8bc8ebd358203b2, type: 3}
  - m_RefCount: 1
    m_Data: {fileID: 432244119153330396, guid: 684c12404947a034b8bc8ebd358203b2, type: 3}
  - m_RefCount: 1
    m_Data: {fileID: -318717266564932737, guid: 684c12404947a034b8bc8ebd358203b2, type: 3}
  - m_RefCount: 1
    m_Data: {fileID: 3608965007132339787, guid: 684c12404947a034b8bc8ebd358203b2, type: 3}
  - m_RefCount: 1
    m_Data: {fileID: 6531360781083918836, guid: 684c12404947a034b8bc8ebd358203b2, type: 3}
  - m_RefCount: 1
    m_Data: {fileID: -1990573944855177767, guid: 684c12404947a034b8bc8ebd358203b2, type: 3}
  - m_RefCount: 1
    m_Data: {fileID: 6217174076398671665, guid: 684c12404947a034b8bc8ebd358203b2, type: 3}
  - m_RefCount: 1
    m_Data: {fileID: 7672022710040235665, guid: 684c12404947a034b8bc8ebd358203b2, type: 3}
  - m_RefCount: 1
    m_Data: {fileID: 640677848159794042, guid: 684c12404947a034b8bc8ebd358203b2, type: 3}
  - m_RefCount: 1
    m_Data: {fileID: -330647037793542236, guid: 684c12404947a034b8bc8ebd358203b2, type: 3}
  - m_RefCount: 1
    m_Data: {fileID: -5515110035305530529, guid: 684c12404947a034b8bc8ebd358203b2, type: 3}
  - m_RefCount: 1
    m_Data: {fileID: -5975158180457774264, guid: 684c12404947a034b8bc8ebd358203b2, type: 3}
  - m_RefCount: 1
    m_Data: {fileID: -6565598716040198458, guid: 684c12404947a034b8bc8ebd358203b2, type: 3}
  - m_RefCount: 1
    m_Data: {fileID: -7402021251715861690, guid: 684c12404947a034b8bc8ebd358203b2, type: 3}
  - m_RefCount: 1
    m_Data: {fileID: -1163222276211302073, guid: 684c12404947a034b8bc8ebd358203b2, type: 3}
  - m_RefCount: 1
    m_Data: {fileID: 2432917207521354047, guid: 684c12404947a034b8bc8ebd358203b2, type: 3}
  - m_RefCount: 1
    m_Data: {fileID: -3960164421636945086, guid: 684c12404947a034b8bc8ebd358203b2, type: 3}
  - m_RefCount: 1
    m_Data: {fileID: -8650075313623947268, guid: 684c12404947a034b8bc8ebd358203b2, type: 3}
  - m_RefCount: 1
    m_Data: {fileID: -564161984984276439, guid: 684c12404947a034b8bc8ebd358203b2, type: 3}
  - m_RefCount: 1
    m_Data: {fileID: -7105007353399502914, guid: 684c12404947a034b8bc8ebd358203b2, type: 3}
  - m_RefCount: 1
    m_Data: {fileID: -3850294085813592526, guid: 684c12404947a034b8bc8ebd358203b2, type: 3}
  - m_RefCount: 1
    m_Data: {fileID: 8269012688799814152, guid: 684c12404947a034b8bc8ebd358203b2, type: 3}
  - m_RefCount: 1
    m_Data: {fileID: -2527503191967373933, guid: 684c12404947a034b8bc8ebd358203b2, type: 3}
  - m_RefCount: 1
    m_Data: {fileID: -1834940867316218324, guid: 684c12404947a034b8bc8ebd358203b2, type: 3}
  - m_RefCount: 1
    m_Data: {fileID: 8400687151014900432, guid: 684c12404947a034b8bc8ebd358203b2, type: 3}
  - m_RefCount: 1
    m_Data: {fileID: 7783352274536668924, guid: 684c12404947a034b8bc8ebd358203b2, type: 3}
  - m_RefCount: 1
    m_Data: {fileID: 6685514445544910643, guid: 684c12404947a034b8bc8ebd358203b2, type: 3}
  - m_RefCount: 1
    m_Data: {fileID: 5732114200406868700, guid: 684c12404947a034b8bc8ebd358203b2, type: 3}
  - m_RefCount: 1
    m_Data: {fileID: -3626449578055351706, guid: 684c12404947a034b8bc8ebd358203b2, type: 3}
  - m_RefCount: 1
    m_Data: {fileID: -7336919881527481822, guid: 684c12404947a034b8bc8ebd358203b2, type: 3}
  - m_RefCount: 1
    m_Data: {fileID: 3560155114013891295, guid: bda3633d5f18bac49b03a494d3834d6e, type: 3}
  - m_RefCount: 1
    m_Data: {fileID: -3738578524348577284, guid: bda3633d5f18bac49b03a494d3834d6e, type: 3}
  - m_RefCount: 1
    m_Data: {fileID: -5754657091617402692, guid: bda3633d5f18bac49b03a494d3834d6e, type: 3}
  - m_RefCount: 1
    m_Data: {fileID: 3747288814163393933, guid: bda3633d5f18bac49b03a494d3834d6e, type: 3}
  m_TileMatrixArray:
  - m_RefCount: 80
    m_Data:
      e00: 1
      e01: 0
      e02: 0
      e03: 0
      e10: 0
      e11: 1
      e12: 0
      e13: 0
      e20: 0
      e21: 0
      e22: 1
      e23: 0
      e30: 0
      e31: 0
      e32: 0
      e33: 1
  m_TileColorArray:
  - m_RefCount: 80
    m_Data: {r: 1, g: 1, b: 1, a: 1}
  m_TileObjectToInstantiateArray: []
  m_AnimationFrameRate: 1
  m_Color: {r: 1, g: 1, b: 1, a: 1}
  m_Origin: {x: -2, y: -7, z: 0}
  m_Size: {x: 11, y: 10, z: 1}
  m_TileAnchor: {x: 0.5, y: 0.5, z: 0}
  m_TileOrientation: 0
  m_TileOrientationMatrix:
    e00: 1
    e01: 0
    e02: 0
    e03: 0
    e10: 0
    e11: 1
    e12: 0
    e13: 0
    e20: 0
    e21: 0
    e22: 1
    e23: 0
    e30: 0
    e31: 0
    e32: 0
    e33: 1
--- !u!483693784 &792474303064159329
TilemapRenderer:
  m_ObjectHideFlags: 0
  m_CorrespondingSourceObject: {fileID: 0}
  m_PrefabInstance: {fileID: 0}
  m_PrefabAsset: {fileID: 0}
  m_GameObject: {fileID: 201306223770556546}
  m_Enabled: 1
  m_CastShadows: 0
  m_ReceiveShadows: 0
  m_DynamicOccludee: 0
  m_MotionVectors: 1
  m_LightProbeUsage: 0
  m_ReflectionProbeUsage: 0
  m_RayTracingMode: 0
  m_RayTraceProcedural: 0
  m_RenderingLayerMask: 1
  m_RendererPriority: 0
  m_Materials:
  - {fileID: 2100000, guid: a97c105638bdf8b4a8650670310a4cd3, type: 2}
  m_StaticBatchInfo:
    firstSubMesh: 0
    subMeshCount: 0
  m_StaticBatchRoot: {fileID: 0}
  m_ProbeAnchor: {fileID: 0}
  m_LightProbeVolumeOverride: {fileID: 0}
  m_ScaleInLightmap: 1
  m_ReceiveGI: 1
  m_PreserveUVs: 0
  m_IgnoreNormalsForChartDetection: 0
  m_ImportantGI: 0
  m_StitchLightmapSeams: 1
  m_SelectedEditorRenderState: 0
  m_MinimumChartSize: 4
  m_AutoUVMaxDistance: 0.5
  m_AutoUVMaxAngle: 89
  m_LightmapParameters: {fileID: 0}
  m_SortingLayerID: 0
  m_SortingLayer: 0
  m_SortingOrder: 0
  m_ChunkSize: {x: 32, y: 32, z: 32}
  m_ChunkCullingBounds: {x: 0, y: 0, z: 0}
  m_MaxChunkCount: 16
  m_MaxFrameAge: 16
  m_SortOrder: 0
  m_Mode: 0
  m_DetectChunkCullingBounds: 0
  m_MaskInteraction: 0
--- !u!1 &1524600705215513817
GameObject:
  m_ObjectHideFlags: 0
  m_CorrespondingSourceObject: {fileID: 0}
  m_PrefabInstance: {fileID: 0}
  m_PrefabAsset: {fileID: 0}
  serializedVersion: 6
  m_Component:
  - component: {fileID: 5529196535320031960}
  - component: {fileID: 7182887747644208761}
  m_Layer: 31
  m_Name: ShipInteriorUpdated
  m_TagString: Untagged
  m_Icon: {fileID: 0}
  m_NavMeshLayer: 0
  m_StaticEditorFlags: 0
  m_IsActive: 1
--- !u!4 &5529196535320031960
Transform:
  m_ObjectHideFlags: 0
  m_CorrespondingSourceObject: {fileID: 0}
  m_PrefabInstance: {fileID: 0}
  m_PrefabAsset: {fileID: 0}
  m_GameObject: {fileID: 1524600705215513817}
  m_LocalRotation: {x: 0, y: 0, z: 0, w: 1}
  m_LocalPosition: {x: 0, y: 0, z: 0}
  m_LocalScale: {x: 1, y: 1, z: 1}
  m_Children:
  - {fileID: 3504194618824747875}
  m_Father: {fileID: 0}
  m_RootOrder: 0
  m_LocalEulerAnglesHint: {x: 0, y: 0, z: 0}
--- !u!156049354 &7182887747644208761
Grid:
  m_ObjectHideFlags: 0
  m_CorrespondingSourceObject: {fileID: 0}
  m_PrefabInstance: {fileID: 0}
  m_PrefabAsset: {fileID: 0}
  m_GameObject: {fileID: 1524600705215513817}
  m_Enabled: 1
  m_CellSize: {x: 1, y: 1, z: 0}
  m_CellGap: {x: 0, y: 0, z: 0}
  m_CellLayout: 0
  m_CellSwizzle: 0
--- !u!114 &5483632145181748136
MonoBehaviour:
  m_ObjectHideFlags: 0
  m_CorrespondingSourceObject: {fileID: 0}
  m_PrefabInstance: {fileID: 0}
  m_PrefabAsset: {fileID: 0}
  m_GameObject: {fileID: 0}
  m_Enabled: 1
  m_EditorHideFlags: 0
  m_Script: {fileID: 12395, guid: 0000000000000000e000000000000000, type: 0}
  m_Name: Palette Settings
  m_EditorClassIdentifier: 
  cellSizing: 0
  m_TransparencySortMode: 0
  m_TransparencySortAxis: {x: 0, y: 0, z: 1}
