%YAML 1.1
%TAG !u! tag:unity3d.com,2011:
--- !u!1 &1731306050899225845
GameObject:
  m_ObjectHideFlags: 0
  m_CorrespondingSourceObject: {fileID: 0}
  m_PrefabInstance: {fileID: 0}
  m_PrefabAsset: {fileID: 0}
  serializedVersion: 6
  m_Component:
  - component: {fileID: 410946551227021367}
  - component: {fileID: 2957728943607727517}
  m_Layer: 31
  m_Name: Stairs_expanded
  m_TagString: Untagged
  m_Icon: {fileID: 0}
  m_NavMeshLayer: 0
  m_StaticEditorFlags: 0
  m_IsActive: 1
--- !u!4 &410946551227021367
Transform:
  m_ObjectHideFlags: 0
  m_CorrespondingSourceObject: {fileID: 0}
  m_PrefabInstance: {fileID: 0}
  m_PrefabAsset: {fileID: 0}
  m_GameObject: {fileID: 1731306050899225845}
  m_LocalRotation: {x: 0, y: 0, z: 0, w: 1}
  m_LocalPosition: {x: 0, y: 0, z: 0}
  m_LocalScale: {x: 1, y: 1, z: 1}
  m_Children:
  - {fileID: 3292490273435116531}
  m_Father: {fileID: 0}
  m_RootOrder: 0
  m_LocalEulerAnglesHint: {x: 0, y: 0, z: 0}
--- !u!156049354 &2957728943607727517
Grid:
  m_ObjectHideFlags: 0
  m_CorrespondingSourceObject: {fileID: 0}
  m_PrefabInstance: {fileID: 0}
  m_PrefabAsset: {fileID: 0}
  m_GameObject: {fileID: 1731306050899225845}
  m_Enabled: 1
  m_CellSize: {x: 1, y: 1, z: 0}
  m_CellGap: {x: 0, y: 0, z: 0}
  m_CellLayout: 0
  m_CellSwizzle: 0
--- !u!1 &3118008639088651849
GameObject:
  m_ObjectHideFlags: 0
  m_CorrespondingSourceObject: {fileID: 0}
  m_PrefabInstance: {fileID: 0}
  m_PrefabAsset: {fileID: 0}
  serializedVersion: 6
  m_Component:
  - component: {fileID: 3292490273435116531}
  - component: {fileID: 1648531460872797714}
  - component: {fileID: 4126864359436641637}
  m_Layer: 0
  m_Name: Layer1
  m_TagString: Untagged
  m_Icon: {fileID: 0}
  m_NavMeshLayer: 0
  m_StaticEditorFlags: 0
  m_IsActive: 1
--- !u!4 &3292490273435116531
Transform:
  m_ObjectHideFlags: 0
  m_CorrespondingSourceObject: {fileID: 0}
  m_PrefabInstance: {fileID: 0}
  m_PrefabAsset: {fileID: 0}
  m_GameObject: {fileID: 3118008639088651849}
  m_LocalRotation: {x: -0, y: -0, z: -0, w: 1}
  m_LocalPosition: {x: 0, y: 0, z: 0}
  m_LocalScale: {x: 1, y: 1, z: 1}
  m_Children: []
  m_Father: {fileID: 410946551227021367}
  m_RootOrder: 0
  m_LocalEulerAnglesHint: {x: 0, y: 0, z: 0}
--- !u!1839735485 &1648531460872797714
Tilemap:
  m_ObjectHideFlags: 0
  m_CorrespondingSourceObject: {fileID: 0}
  m_PrefabInstance: {fileID: 0}
  m_PrefabAsset: {fileID: 0}
  m_GameObject: {fileID: 3118008639088651849}
  m_Enabled: 1
  m_Tiles:
  - first: {x: -1, y: -3, z: 0}
    second:
      serializedVersion: 2
      m_TileIndex: 19
      m_TileSpriteIndex: 19
      m_TileMatrixIndex: 0
      m_TileColorIndex: 0
      m_TileObjectToInstantiateIndex: 65535
      dummyAlignment: 0
      m_AllTileFlags: 1073741825
  - first: {x: 0, y: -3, z: 0}
    second:
      serializedVersion: 2
      m_TileIndex: 20
      m_TileSpriteIndex: 20
      m_TileMatrixIndex: 0
      m_TileColorIndex: 0
      m_TileObjectToInstantiateIndex: 65535
      dummyAlignment: 0
      m_AllTileFlags: 1073741825
  - first: {x: 1, y: -3, z: 0}
    second:
      serializedVersion: 2
      m_TileIndex: 21
      m_TileSpriteIndex: 21
      m_TileMatrixIndex: 0
      m_TileColorIndex: 0
      m_TileObjectToInstantiateIndex: 65535
      dummyAlignment: 0
      m_AllTileFlags: 1073741825
  - first: {x: 2, y: -3, z: 0}
    second:
      serializedVersion: 2
      m_TileIndex: 22
      m_TileSpriteIndex: 22
      m_TileMatrixIndex: 0
      m_TileColorIndex: 0
      m_TileObjectToInstantiateIndex: 65535
      dummyAlignment: 0
      m_AllTileFlags: 1073741825
  - first: {x: 3, y: -3, z: 0}
    second:
      serializedVersion: 2
      m_TileIndex: 23
      m_TileSpriteIndex: 23
      m_TileMatrixIndex: 0
      m_TileColorIndex: 0
      m_TileObjectToInstantiateIndex: 65535
      dummyAlignment: 0
      m_AllTileFlags: 1073741825
  - first: {x: 4, y: -3, z: 0}
    second:
      serializedVersion: 2
      m_TileIndex: 24
      m_TileSpriteIndex: 24
      m_TileMatrixIndex: 0
      m_TileColorIndex: 0
      m_TileObjectToInstantiateIndex: 65535
      dummyAlignment: 0
      m_AllTileFlags: 1073741825
  - first: {x: 5, y: -3, z: 0}
    second:
      serializedVersion: 2
      m_TileIndex: 25
      m_TileSpriteIndex: 25
      m_TileMatrixIndex: 0
      m_TileColorIndex: 0
      m_TileObjectToInstantiateIndex: 65535
      dummyAlignment: 0
      m_AllTileFlags: 1073741825
  - first: {x: -1, y: -2, z: 0}
    second:
      serializedVersion: 2
      m_TileIndex: 13
      m_TileSpriteIndex: 13
      m_TileMatrixIndex: 0
      m_TileColorIndex: 0
      m_TileObjectToInstantiateIndex: 65535
      dummyAlignment: 0
      m_AllTileFlags: 1073741825
  - first: {x: 0, y: -2, z: 0}
    second:
      serializedVersion: 2
      m_TileIndex: 14
      m_TileSpriteIndex: 14
      m_TileMatrixIndex: 0
      m_TileColorIndex: 0
      m_TileObjectToInstantiateIndex: 65535
      dummyAlignment: 0
      m_AllTileFlags: 1073741825
  - first: {x: 2, y: -2, z: 0}
    second:
      serializedVersion: 2
      m_TileIndex: 15
      m_TileSpriteIndex: 15
      m_TileMatrixIndex: 0
      m_TileColorIndex: 0
      m_TileObjectToInstantiateIndex: 65535
      dummyAlignment: 0
      m_AllTileFlags: 1073741825
  - first: {x: 3, y: -2, z: 0}
    second:
      serializedVersion: 2
      m_TileIndex: 16
      m_TileSpriteIndex: 16
      m_TileMatrixIndex: 0
      m_TileColorIndex: 0
      m_TileObjectToInstantiateIndex: 65535
      dummyAlignment: 0
      m_AllTileFlags: 1073741825
  - first: {x: 4, y: -2, z: 0}
    second:
      serializedVersion: 2
      m_TileIndex: 17
      m_TileSpriteIndex: 17
      m_TileMatrixIndex: 0
      m_TileColorIndex: 0
      m_TileObjectToInstantiateIndex: 65535
      dummyAlignment: 0
      m_AllTileFlags: 1073741825
  - first: {x: 5, y: -2, z: 0}
    second:
      serializedVersion: 2
      m_TileIndex: 18
      m_TileSpriteIndex: 18
      m_TileMatrixIndex: 0
      m_TileColorIndex: 0
      m_TileObjectToInstantiateIndex: 65535
      dummyAlignment: 0
      m_AllTileFlags: 1073741825
  - first: {x: -1, y: -1, z: 0}
    second:
      serializedVersion: 2
      m_TileIndex: 7
      m_TileSpriteIndex: 7
      m_TileMatrixIndex: 0
      m_TileColorIndex: 0
      m_TileObjectToInstantiateIndex: 65535
      dummyAlignment: 0
      m_AllTileFlags: 1073741825
  - first: {x: 0, y: -1, z: 0}
    second:
      serializedVersion: 2
      m_TileIndex: 8
      m_TileSpriteIndex: 8
      m_TileMatrixIndex: 0
      m_TileColorIndex: 0
      m_TileObjectToInstantiateIndex: 65535
      dummyAlignment: 0
      m_AllTileFlags: 1073741825
  - first: {x: 2, y: -1, z: 0}
    second:
      serializedVersion: 2
      m_TileIndex: 9
      m_TileSpriteIndex: 9
      m_TileMatrixIndex: 0
      m_TileColorIndex: 0
      m_TileObjectToInstantiateIndex: 65535
      dummyAlignment: 0
      m_AllTileFlags: 1073741825
  - first: {x: 3, y: -1, z: 0}
    second:
      serializedVersion: 2
      m_TileIndex: 10
      m_TileSpriteIndex: 10
      m_TileMatrixIndex: 0
      m_TileColorIndex: 0
      m_TileObjectToInstantiateIndex: 65535
      dummyAlignment: 0
      m_AllTileFlags: 1073741825
  - first: {x: 4, y: -1, z: 0}
    second:
      serializedVersion: 2
      m_TileIndex: 11
      m_TileSpriteIndex: 11
      m_TileMatrixIndex: 0
      m_TileColorIndex: 0
      m_TileObjectToInstantiateIndex: 65535
      dummyAlignment: 0
      m_AllTileFlags: 1073741825
  - first: {x: 5, y: -1, z: 0}
    second:
      serializedVersion: 2
      m_TileIndex: 12
      m_TileSpriteIndex: 12
      m_TileMatrixIndex: 0
      m_TileColorIndex: 0
      m_TileObjectToInstantiateIndex: 65535
      dummyAlignment: 0
      m_AllTileFlags: 1073741825
  - first: {x: -1, y: 0, z: 0}
    second:
      serializedVersion: 2
      m_TileIndex: 0
      m_TileSpriteIndex: 0
      m_TileMatrixIndex: 0
      m_TileColorIndex: 0
      m_TileObjectToInstantiateIndex: 65535
      dummyAlignment: 0
      m_AllTileFlags: 1073741825
  - first: {x: 0, y: 0, z: 0}
    second:
      serializedVersion: 2
      m_TileIndex: 1
      m_TileSpriteIndex: 1
      m_TileMatrixIndex: 0
      m_TileColorIndex: 0
      m_TileObjectToInstantiateIndex: 65535
      dummyAlignment: 0
      m_AllTileFlags: 1073741825
  - first: {x: 1, y: 0, z: 0}
    second:
      serializedVersion: 2
      m_TileIndex: 2
      m_TileSpriteIndex: 2
      m_TileMatrixIndex: 0
      m_TileColorIndex: 0
      m_TileObjectToInstantiateIndex: 65535
      dummyAlignment: 0
      m_AllTileFlags: 1073741825
  - first: {x: 2, y: 0, z: 0}
    second:
      serializedVersion: 2
      m_TileIndex: 3
      m_TileSpriteIndex: 3
      m_TileMatrixIndex: 0
      m_TileColorIndex: 0
      m_TileObjectToInstantiateIndex: 65535
      dummyAlignment: 0
      m_AllTileFlags: 1073741825
  - first: {x: 3, y: 0, z: 0}
    second:
      serializedVersion: 2
      m_TileIndex: 4
      m_TileSpriteIndex: 4
      m_TileMatrixIndex: 0
      m_TileColorIndex: 0
      m_TileObjectToInstantiateIndex: 65535
      dummyAlignment: 0
      m_AllTileFlags: 1073741825
  - first: {x: 4, y: 0, z: 0}
    second:
      serializedVersion: 2
      m_TileIndex: 5
      m_TileSpriteIndex: 5
      m_TileMatrixIndex: 0
      m_TileColorIndex: 0
      m_TileObjectToInstantiateIndex: 65535
      dummyAlignment: 0
      m_AllTileFlags: 1073741825
  - first: {x: 5, y: 0, z: 0}
    second:
      serializedVersion: 2
      m_TileIndex: 6
      m_TileSpriteIndex: 6
      m_TileMatrixIndex: 0
      m_TileColorIndex: 0
      m_TileObjectToInstantiateIndex: 65535
      dummyAlignment: 0
      m_AllTileFlags: 1073741825
  m_AnimatedTiles: {}
  m_TileAssetArray:
  - m_RefCount: 1
    m_Data: {fileID: 11400000, guid: 1abe0e187ca4b7b4f822b1052f79099e, type: 2}
  - m_RefCount: 1
    m_Data: {fileID: 11400000, guid: 78809fe67678dab439ef494a8b9968a6, type: 2}
  - m_RefCount: 1
    m_Data: {fileID: 11400000, guid: 6c9e83c44af895d46a444a7f7abffce0, type: 2}
  - m_RefCount: 1
    m_Data: {fileID: 11400000, guid: 082874c8f8a24d64d852ced41a281609, type: 2}
  - m_RefCount: 1
    m_Data: {fileID: 11400000, guid: 0de6af54a75cfb243823ddfafeabab27, type: 2}
  - m_RefCount: 1
    m_Data: {fileID: 11400000, guid: 791d92b2572a90446813944e9127e6e1, type: 2}
  - m_RefCount: 1
    m_Data: {fileID: 11400000, guid: f4e5d4c618b9cde40b175f61e25ee666, type: 2}
  - m_RefCount: 1
    m_Data: {fileID: 11400000, guid: a6b379c0b9c5a3749922b95aec4ec09e, type: 2}
  - m_RefCount: 1
    m_Data: {fileID: 11400000, guid: 2faf63cfcaa643145b8bbd158629f085, type: 2}
  - m_RefCount: 1
    m_Data: {fileID: 11400000, guid: b3c313a073af443438faaebf946b6677, type: 2}
  - m_RefCount: 1
    m_Data: {fileID: 11400000, guid: 294cb7eb4ea9baf4086a382a76ba455d, type: 2}
  - m_RefCount: 1
    m_Data: {fileID: 11400000, guid: 414b235855d1b2f4188a42b37c296599, type: 2}
  - m_RefCount: 1
    m_Data: {fileID: 11400000, guid: 88d15e23f13531b468c70defc296fc1b, type: 2}
  - m_RefCount: 1
    m_Data: {fileID: 11400000, guid: 4da61e2983f21b84ba4139233fab8707, type: 2}
  - m_RefCount: 1
    m_Data: {fileID: 11400000, guid: 44c640b66d4951e4c8640d97e434fe96, type: 2}
  - m_RefCount: 1
    m_Data: {fileID: 11400000, guid: 6645393564ed26245be42cccfabe9204, type: 2}
  - m_RefCount: 1
    m_Data: {fileID: 11400000, guid: 0eff630d824aab94ab3551a889932a92, type: 2}
  - m_RefCount: 1
    m_Data: {fileID: 11400000, guid: dfb662acc7c7d4f409bce721512dbaf6, type: 2}
  - m_RefCount: 1
    m_Data: {fileID: 11400000, guid: deb784f3c68b7f04c93ef0d0c0648bb8, type: 2}
  - m_RefCount: 1
    m_Data: {fileID: 11400000, guid: 416f2f3150a68d549a29f179c79228c8, type: 2}
  - m_RefCount: 1
    m_Data: {fileID: 11400000, guid: c39ca78378ac8954981342c921398b0d, type: 2}
  - m_RefCount: 1
    m_Data: {fileID: 11400000, guid: 4f090282311a20547a13dd686aca9804, type: 2}
  - m_RefCount: 1
    m_Data: {fileID: 11400000, guid: 7bf0871feb98f4445a5ce85cf2fc41b7, type: 2}
  - m_RefCount: 1
    m_Data: {fileID: 11400000, guid: f948feafe26592a41a73c1533ed24c3d, type: 2}
  - m_RefCount: 1
    m_Data: {fileID: 11400000, guid: 6e707c7ccf0c0c2419d164a08be04e55, type: 2}
  - m_RefCount: 1
    m_Data: {fileID: 11400000, guid: bffc927371b80d34bb9ead7a758edf62, type: 2}
  m_TileSpriteArray:
  - m_RefCount: 1
    m_Data: {fileID: -7149928931534445294, guid: 7b577a4318e7dbe41a4ab1458d8bc1f7, type: 3}
  - m_RefCount: 1
    m_Data: {fileID: 889709622284740199, guid: 7b577a4318e7dbe41a4ab1458d8bc1f7, type: 3}
  - m_RefCount: 1
    m_Data: {fileID: 7636040064862019485, guid: 7b577a4318e7dbe41a4ab1458d8bc1f7, type: 3}
  - m_RefCount: 1
    m_Data: {fileID: -3513171652817695623, guid: 7b577a4318e7dbe41a4ab1458d8bc1f7, type: 3}
  - m_RefCount: 1
    m_Data: {fileID: 1952876922509188457, guid: 7b577a4318e7dbe41a4ab1458d8bc1f7, type: 3}
  - m_RefCount: 1
    m_Data: {fileID: -6261329053201969121, guid: 7b577a4318e7dbe41a4ab1458d8bc1f7, type: 3}
  - m_RefCount: 1
    m_Data: {fileID: -1283225122670574398, guid: 7b577a4318e7dbe41a4ab1458d8bc1f7, type: 3}
  - m_RefCount: 1
    m_Data: {fileID: 6034583395685048138, guid: 7b577a4318e7dbe41a4ab1458d8bc1f7, type: 3}
  - m_RefCount: 1
    m_Data: {fileID: 6676411179903454543, guid: 7b577a4318e7dbe41a4ab1458d8bc1f7, type: 3}
  - m_RefCount: 1
    m_Data: {fileID: 1001630797723318583, guid: 7b577a4318e7dbe41a4ab1458d8bc1f7, type: 3}
  - m_RefCount: 1
    m_Data: {fileID: -6572151204994906269, guid: 7b577a4318e7dbe41a4ab1458d8bc1f7, type: 3}
  - m_RefCount: 1
    m_Data: {fileID: -9182774867826883284, guid: 7b577a4318e7dbe41a4ab1458d8bc1f7, type: 3}
  - m_RefCount: 1
    m_Data: {fileID: 4526454399547289578, guid: 7b577a4318e7dbe41a4ab1458d8bc1f7, type: 3}
  - m_RefCount: 1
    m_Data: {fileID: -584409383389126405, guid: 7b577a4318e7dbe41a4ab1458d8bc1f7, type: 3}
  - m_RefCount: 1
    m_Data: {fileID: 1703030532044609841, guid: 7b577a4318e7dbe41a4ab1458d8bc1f7, type: 3}
  - m_RefCount: 1
    m_Data: {fileID: -3357963736608859021, guid: 7b577a4318e7dbe41a4ab1458d8bc1f7, type: 3}
  - m_RefCount: 1
    m_Data: {fileID: 8812491985245173716, guid: 7b577a4318e7dbe41a4ab1458d8bc1f7, type: 3}
  - m_RefCount: 1
    m_Data: {fileID: 4737026709314424218, guid: 7b577a4318e7dbe41a4ab1458d8bc1f7, type: 3}
  - m_RefCount: 1
    m_Data: {fileID: -33277251709771006, guid: 7b577a4318e7dbe41a4ab1458d8bc1f7, type: 3}
  - m_RefCount: 1
    m_Data: {fileID: -5554781344793618806, guid: 7b577a4318e7dbe41a4ab1458d8bc1f7, type: 3}
  - m_RefCount: 1
    m_Data: {fileID: 2920988221574067074, guid: 7b577a4318e7dbe41a4ab1458d8bc1f7, type: 3}
  - m_RefCount: 1
    m_Data: {fileID: -9015384055894388548, guid: 7b577a4318e7dbe41a4ab1458d8bc1f7, type: 3}
  - m_RefCount: 1
    m_Data: {fileID: -4884571719243968247, guid: 7b577a4318e7dbe41a4ab1458d8bc1f7, type: 3}
  - m_RefCount: 1
    m_Data: {fileID: 499293387269787337, guid: 7b577a4318e7dbe41a4ab1458d8bc1f7, type: 3}
  - m_RefCount: 1
    m_Data: {fileID: 3069713812437350, guid: 7b577a4318e7dbe41a4ab1458d8bc1f7, type: 3}
  - m_RefCount: 1
    m_Data: {fileID: 955570319237653287, guid: 7b577a4318e7dbe41a4ab1458d8bc1f7, type: 3}
  m_TileMatrixArray:
  - m_RefCount: 26
    m_Data:
      e00: 1
      e01: 0
      e02: 0
      e03: 0
      e10: 0
      e11: 1
      e12: 0
      e13: 0
      e20: 0
      e21: 0
      e22: 1
      e23: 0
      e30: 0
      e31: 0
      e32: 0
      e33: 1
  m_TileColorArray:
  - m_RefCount: 26
    m_Data: {r: 1, g: 1, b: 1, a: 1}
  m_TileObjectToInstantiateArray: []
  m_AnimationFrameRate: 1
  m_Color: {r: 1, g: 1, b: 1, a: 1}
  m_Origin: {x: -1, y: -3, z: 0}
  m_Size: {x: 7, y: 4, z: 1}
  m_TileAnchor: {x: 0.5, y: 0.5, z: 0}
  m_TileOrientation: 0
  m_TileOrientationMatrix:
    e00: 1
    e01: 0
    e02: 0
    e03: 0
    e10: 0
    e11: 1
    e12: 0
    e13: 0
    e20: 0
    e21: 0
    e22: 1
    e23: 0
    e30: 0
    e31: 0
    e32: 0
    e33: 1
--- !u!483693784 &4126864359436641637
TilemapRenderer:
  m_ObjectHideFlags: 0
  m_CorrespondingSourceObject: {fileID: 0}
  m_PrefabInstance: {fileID: 0}
  m_PrefabAsset: {fileID: 0}
  m_GameObject: {fileID: 3118008639088651849}
  m_Enabled: 1
  m_CastShadows: 0
  m_ReceiveShadows: 0
  m_DynamicOccludee: 0
  m_MotionVectors: 1
  m_LightProbeUsage: 0
  m_ReflectionProbeUsage: 0
  m_RayTracingMode: 0
  m_RayTraceProcedural: 0
  m_RenderingLayerMask: 1
  m_RendererPriority: 0
  m_Materials:
  - {fileID: 2100000, guid: a97c105638bdf8b4a8650670310a4cd3, type: 2}
  m_StaticBatchInfo:
    firstSubMesh: 0
    subMeshCount: 0
  m_StaticBatchRoot: {fileID: 0}
  m_ProbeAnchor: {fileID: 0}
  m_LightProbeVolumeOverride: {fileID: 0}
  m_ScaleInLightmap: 1
  m_ReceiveGI: 1
  m_PreserveUVs: 0
  m_IgnoreNormalsForChartDetection: 0
  m_ImportantGI: 0
  m_StitchLightmapSeams: 1
  m_SelectedEditorRenderState: 0
  m_MinimumChartSize: 4
  m_AutoUVMaxDistance: 0.5
  m_AutoUVMaxAngle: 89
  m_LightmapParameters: {fileID: 0}
  m_SortingLayerID: 0
  m_SortingLayer: 0
  m_SortingOrder: 0
  m_ChunkSize: {x: 32, y: 32, z: 32}
  m_ChunkCullingBounds: {x: 0, y: 0, z: 0}
  m_MaxChunkCount: 16
  m_MaxFrameAge: 16
  m_SortOrder: 0
  m_Mode: 0
  m_DetectChunkCullingBounds: 0
  m_MaskInteraction: 0
--- !u!114 &3966623976418243578
MonoBehaviour:
  m_ObjectHideFlags: 0
  m_CorrespondingSourceObject: {fileID: 0}
  m_PrefabInstance: {fileID: 0}
  m_PrefabAsset: {fileID: 0}
  m_GameObject: {fileID: 0}
  m_Enabled: 1
  m_EditorHideFlags: 0
  m_Script: {fileID: 12395, guid: 0000000000000000e000000000000000, type: 0}
  m_Name: Palette Settings
  m_EditorClassIdentifier: 
  cellSizing: 0
  m_TransparencySortMode: 0
  m_TransparencySortAxis: {x: 0, y: 0, z: 1}
