%YAML 1.1
%TAG !u! tag:unity3d.com,2011:
--- !u!74 &7400000
AnimationClip:
  m_ObjectHideFlags: 0
  m_CorrespondingSourceObject: {fileID: 0}
  m_PrefabInstance: {fileID: 0}
  m_PrefabAsset: {fileID: 0}
  m_Name: Sailor_Panicking
  serializedVersion: 6
  m_Legacy: 0
  m_Compressed: 0
  m_UseHighQualityCurve: 1
  m_RotationCurves: []
  m_CompressedRotationCurves: []
  m_EulerCurves: []
  m_PositionCurves: []
  m_ScaleCurves: []
  m_FloatCurves:
  - curve:
      serializedVersion: 2
      m_Curve:
      - serializedVersion: 3
        time: 0
        value: 0
        inSlope: Infinity
        outSlope: Infinity
        tangentMode: 103
        weightedMode: 0
        inWeight: 0
        outWeight: 0
      - serializedVersion: 3
        time: 0.16666667
        value: 1
        inSlope: Infinity
        outSlope: Infinity
        tangentMode: 103
        weightedMode: 0
        inWeight: 0
        outWeight: 0
      - serializedVersion: 3
        time: 0.6666667
        value: 0
        inSlope: Infinity
        outSlope: Infinity
        tangentMode: 103
        weightedMode: 0
        inWeight: 0
        outWeight: 0
      - serializedVersion: 3
        time: 1
        value: 1
        inSlope: Infinity
        outSlope: Infinity
        tangentMode: 103
        weightedMode: 0
        inWeight: 0
        outWeight: 0
      - serializedVersion: 3
        time: 1.1666666
        value: 0
        inSlope: Infinity
        outSlope: Infinity
        tangentMode: 103
        weightedMode: 0
        inWeight: 0
        outWeight: 0
      - serializedVersion: 3
        time: 1.5
        value: 0
        inSlope: Infinity
        outSlope: Infinity
        tangentMode: 103
        weightedMode: 0
        inWeight: 0
        outWeight: 0
      m_PreInfinity: 2
      m_PostInfinity: 2
      m_RotationOrder: 4
    attribute: m_FlipX
    path: 
    classID: 212
    script: {fileID: 0}
  m_PPtrCurves:
  - curve:
    - time: 0
      value: {fileID: -5843405009117717892, guid: 4d3fc5d2924f98d4a95bf18e5104665e, type: 3}
    - time: 0.033333335
      value: {fileID: 6031283417144866494, guid: 4d3fc5d2924f98d4a95bf18e5104665e, type: 3}
    - time: 0.05
      value: {fileID: -834594915841323347, guid: 4d3fc5d2924f98d4a95bf18e5104665e, type: 3}
    - time: 0.06666667
      value: {fileID: -1706852984697292237, guid: 4d3fc5d2924f98d4a95bf18e5104665e, type: 3}
    - time: 0.083333336
      value: {fileID: 6031283417144866494, guid: 4d3fc5d2924f98d4a95bf18e5104665e, type: 3}
    - time: 0.11666667
      value: {fileID: 6031283417144866494, guid: 4d3fc5d2924f98d4a95bf18e5104665e, type: 3}
    - time: 0.13333334
      value: {fileID: -5843405009117717892, guid: 4d3fc5d2924f98d4a95bf18e5104665e, type: 3}
    - time: 0.16666667
      value: {fileID: -5843405009117717892, guid: 4d3fc5d2924f98d4a95bf18e5104665e, type: 3}
    - time: 0.2
      value: {fileID: 6031283417144866494, guid: 4d3fc5d2924f98d4a95bf18e5104665e, type: 3}
    - time: 0.21666667
      value: {fileID: -834594915841323347, guid: 4d3fc5d2924f98d4a95bf18e5104665e, type: 3}
    - time: 0.23333333
      value: {fileID: -1706852984697292237, guid: 4d3fc5d2924f98d4a95bf18e5104665e, type: 3}
    - time: 0.25
      value: {fileID: 6031283417144866494, guid: 4d3fc5d2924f98d4a95bf18e5104665e, type: 3}
    - time: 0.28333333
      value: {fileID: 6031283417144866494, guid: 4d3fc5d2924f98d4a95bf18e5104665e, type: 3}
    - time: 0.33333334
      value: {fileID: -5843405009117717892, guid: 4d3fc5d2924f98d4a95bf18e5104665e, type: 3}
    - time: 0.36666667
      value: {fileID: 6031283417144866494, guid: 4d3fc5d2924f98d4a95bf18e5104665e, type: 3}
    - time: 0.4
      value: {fileID: -1706852984697292237, guid: 4d3fc5d2924f98d4a95bf18e5104665e, type: 3}
    - time: 0.41666666
      value: {fileID: 6031283417144866494, guid: 4d3fc5d2924f98d4a95bf18e5104665e, type: 3}
    - time: 0.45
      value: {fileID: 6031283417144866494, guid: 4d3fc5d2924f98d4a95bf18e5104665e, type: 3}
    - time: 0.46666667
      value: {fileID: -5843405009117717892, guid: 4d3fc5d2924f98d4a95bf18e5104665e, type: 3}
    - time: 0.53333336
      value: {fileID: -5843405009117717892, guid: 4d3fc5d2924f98d4a95bf18e5104665e, type: 3}
    - time: 0.55
      value: {fileID: 6031283417144866494, guid: 4d3fc5d2924f98d4a95bf18e5104665e, type: 3}
    - time: 0.56666666
      value: {fileID: -834594915841323347, guid: 4d3fc5d2924f98d4a95bf18e5104665e, type: 3}
    - time: 0.5833333
      value: {fileID: -1706852984697292237, guid: 4d3fc5d2924f98d4a95bf18e5104665e, type: 3}
    - time: 0.6166667
      value: {fileID: 6031283417144866494, guid: 4d3fc5d2924f98d4a95bf18e5104665e, type: 3}
    - time: 0.6333333
      value: {fileID: 6031283417144866494, guid: 4d3fc5d2924f98d4a95bf18e5104665e, type: 3}
    - time: 0.6666667
      value: {fileID: -5843405009117717892, guid: 4d3fc5d2924f98d4a95bf18e5104665e, type: 3}
    - time: 0.7
      value: {fileID: -5843405009117717892, guid: 4d3fc5d2924f98d4a95bf18e5104665e, type: 3}
    - time: 0.73333335
      value: {fileID: 6031283417144866494, guid: 4d3fc5d2924f98d4a95bf18e5104665e, type: 3}
    - time: 0.75
      value: {fileID: -834594915841323347, guid: 4d3fc5d2924f98d4a95bf18e5104665e, type: 3}
    - time: 0.76666665
      value: {fileID: -1706852984697292237, guid: 4d3fc5d2924f98d4a95bf18e5104665e, type: 3}
    - time: 0.9166667
      value: {fileID: -834594915841323347, guid: 4d3fc5d2924f98d4a95bf18e5104665e, type: 3}
    - time: 0.93333334
      value: {fileID: -1706852984697292237, guid: 4d3fc5d2924f98d4a95bf18e5104665e, type: 3}
    - time: 0.96666664
      value: {fileID: 6031283417144866494, guid: 4d3fc5d2924f98d4a95bf18e5104665e, type: 3}
    - time: 0.98333335
      value: {fileID: 6031283417144866494, guid: 4d3fc5d2924f98d4a95bf18e5104665e, type: 3}
    - time: 1.0166667
      value: {fileID: -5843405009117717892, guid: 4d3fc5d2924f98d4a95bf18e5104665e, type: 3}
    - time: 1.0666667
      value: {fileID: -5843405009117717892, guid: 4d3fc5d2924f98d4a95bf18e5104665e, type: 3}
    - time: 1.1
      value: {fileID: 6031283417144866494, guid: 4d3fc5d2924f98d4a95bf18e5104665e, type: 3}
    - time: 1.1166667
      value: {fileID: -834594915841323347, guid: 4d3fc5d2924f98d4a95bf18e5104665e, type: 3}
    - time: 1.1333333
      value: {fileID: -1706852984697292237, guid: 4d3fc5d2924f98d4a95bf18e5104665e, type: 3}
    - time: 1.15
      value: {fileID: 6031283417144866494, guid: 4d3fc5d2924f98d4a95bf18e5104665e, type: 3}
    - time: 1.1833333
      value: {fileID: 6031283417144866494, guid: 4d3fc5d2924f98d4a95bf18e5104665e, type: 3}
    - time: 1.2
      value: {fileID: -5843405009117717892, guid: 4d3fc5d2924f98d4a95bf18e5104665e, type: 3}
    - time: 1.25
      value: {fileID: -5843405009117717892, guid: 4d3fc5d2924f98d4a95bf18e5104665e, type: 3}
    - time: 1.2833333
      value: {fileID: 6031283417144866494, guid: 4d3fc5d2924f98d4a95bf18e5104665e, type: 3}
    - time: 1.3
      value: {fileID: -834594915841323347, guid: 4d3fc5d2924f98d4a95bf18e5104665e, type: 3}
    - time: 1.3166667
      value: {fileID: -1706852984697292237, guid: 4d3fc5d2924f98d4a95bf18e5104665e, type: 3}
    - time: 1.3333334
      value: {fileID: 6031283417144866494, guid: 4d3fc5d2924f98d4a95bf18e5104665e, type: 3}
    - time: 1.3666667
      value: {fileID: 6031283417144866494, guid: 4d3fc5d2924f98d4a95bf18e5104665e, type: 3}
    - time: 1.3833333
      value: {fileID: -5843405009117717892, guid: 4d3fc5d2924f98d4a95bf18e5104665e, type: 3}
    - time: 1.4833333
      value: {fileID: -5843405009117717892, guid: 4d3fc5d2924f98d4a95bf18e5104665e, type: 3}
    attribute: m_Sprite
    path: 
    classID: 212
    script: {fileID: 0}
  m_SampleRate: 60
  m_WrapMode: 0
  m_Bounds:
    m_Center: {x: 0, y: 0, z: 0}
    m_Extent: {x: 0, y: 0, z: 0}
  m_ClipBindingConstant:
    genericBindings:
    - serializedVersion: 2
      path: 0
      attribute: 555744692
      script: {fileID: 0}
      typeID: 212
      customType: 0
      isPPtrCurve: 0
    - serializedVersion: 2
      path: 0
      attribute: 0
      script: {fileID: 0}
      typeID: 212
      customType: 23
      isPPtrCurve: 1
    pptrCurveMapping:
    - {fileID: -5843405009117717892, guid: 4d3fc5d2924f98d4a95bf18e5104665e, type: 3}
    - {fileID: 6031283417144866494, guid: 4d3fc5d2924f98d4a95bf18e5104665e, type: 3}
    - {fileID: -834594915841323347, guid: 4d3fc5d2924f98d4a95bf18e5104665e, type: 3}
    - {fileID: -1706852984697292237, guid: 4d3fc5d2924f98d4a95bf18e5104665e, type: 3}
    - {fileID: 6031283417144866494, guid: 4d3fc5d2924f98d4a95bf18e5104665e, type: 3}
    - {fileID: 6031283417144866494, guid: 4d3fc5d2924f98d4a95bf18e5104665e, type: 3}
    - {fileID: -5843405009117717892, guid: 4d3fc5d2924f98d4a95bf18e5104665e, type: 3}
    - {fileID: -5843405009117717892, guid: 4d3fc5d2924f98d4a95bf18e5104665e, type: 3}
    - {fileID: 6031283417144866494, guid: 4d3fc5d2924f98d4a95bf18e5104665e, type: 3}
    - {fileID: -834594915841323347, guid: 4d3fc5d2924f98d4a95bf18e5104665e, type: 3}
    - {fileID: -1706852984697292237, guid: 4d3fc5d2924f98d4a95bf18e5104665e, type: 3}
    - {fileID: 6031283417144866494, guid: 4d3fc5d2924f98d4a95bf18e5104665e, type: 3}
    - {fileID: 6031283417144866494, guid: 4d3fc5d2924f98d4a95bf18e5104665e, type: 3}
    - {fileID: -5843405009117717892, guid: 4d3fc5d2924f98d4a95bf18e5104665e, type: 3}
    - {fileID: 6031283417144866494, guid: 4d3fc5d2924f98d4a95bf18e5104665e, type: 3}
    - {fileID: -1706852984697292237, guid: 4d3fc5d2924f98d4a95bf18e5104665e, type: 3}
    - {fileID: 6031283417144866494, guid: 4d3fc5d2924f98d4a95bf18e5104665e, type: 3}
    - {fileID: 6031283417144866494, guid: 4d3fc5d2924f98d4a95bf18e5104665e, type: 3}
    - {fileID: -5843405009117717892, guid: 4d3fc5d2924f98d4a95bf18e5104665e, type: 3}
    - {fileID: -5843405009117717892, guid: 4d3fc5d2924f98d4a95bf18e5104665e, type: 3}
    - {fileID: 6031283417144866494, guid: 4d3fc5d2924f98d4a95bf18e5104665e, type: 3}
    - {fileID: -834594915841323347, guid: 4d3fc5d2924f98d4a95bf18e5104665e, type: 3}
    - {fileID: -1706852984697292237, guid: 4d3fc5d2924f98d4a95bf18e5104665e, type: 3}
    - {fileID: 6031283417144866494, guid: 4d3fc5d2924f98d4a95bf18e5104665e, type: 3}
    - {fileID: 6031283417144866494, guid: 4d3fc5d2924f98d4a95bf18e5104665e, type: 3}
    - {fileID: -5843405009117717892, guid: 4d3fc5d2924f98d4a95bf18e5104665e, type: 3}
    - {fileID: -5843405009117717892, guid: 4d3fc5d2924f98d4a95bf18e5104665e, type: 3}
    - {fileID: 6031283417144866494, guid: 4d3fc5d2924f98d4a95bf18e5104665e, type: 3}
    - {fileID: -834594915841323347, guid: 4d3fc5d2924f98d4a95bf18e5104665e, type: 3}
    - {fileID: -1706852984697292237, guid: 4d3fc5d2924f98d4a95bf18e5104665e, type: 3}
    - {fileID: -834594915841323347, guid: 4d3fc5d2924f98d4a95bf18e5104665e, type: 3}
    - {fileID: -1706852984697292237, guid: 4d3fc5d2924f98d4a95bf18e5104665e, type: 3}
    - {fileID: 6031283417144866494, guid: 4d3fc5d2924f98d4a95bf18e5104665e, type: 3}
    - {fileID: 6031283417144866494, guid: 4d3fc5d2924f98d4a95bf18e5104665e, type: 3}
    - {fileID: -5843405009117717892, guid: 4d3fc5d2924f98d4a95bf18e5104665e, type: 3}
    - {fileID: -5843405009117717892, guid: 4d3fc5d2924f98d4a95bf18e5104665e, type: 3}
    - {fileID: 6031283417144866494, guid: 4d3fc5d2924f98d4a95bf18e5104665e, type: 3}
    - {fileID: -834594915841323347, guid: 4d3fc5d2924f98d4a95bf18e5104665e, type: 3}
    - {fileID: -1706852984697292237, guid: 4d3fc5d2924f98d4a95bf18e5104665e, type: 3}
    - {fileID: 6031283417144866494, guid: 4d3fc5d2924f98d4a95bf18e5104665e, type: 3}
    - {fileID: 6031283417144866494, guid: 4d3fc5d2924f98d4a95bf18e5104665e, type: 3}
    - {fileID: -5843405009117717892, guid: 4d3fc5d2924f98d4a95bf18e5104665e, type: 3}
    - {fileID: -5843405009117717892, guid: 4d3fc5d2924f98d4a95bf18e5104665e, type: 3}
    - {fileID: 6031283417144866494, guid: 4d3fc5d2924f98d4a95bf18e5104665e, type: 3}
    - {fileID: -834594915841323347, guid: 4d3fc5d2924f98d4a95bf18e5104665e, type: 3}
    - {fileID: -1706852984697292237, guid: 4d3fc5d2924f98d4a95bf18e5104665e, type: 3}
    - {fileID: 6031283417144866494, guid: 4d3fc5d2924f98d4a95bf18e5104665e, type: 3}
    - {fileID: 6031283417144866494, guid: 4d3fc5d2924f98d4a95bf18e5104665e, type: 3}
    - {fileID: -5843405009117717892, guid: 4d3fc5d2924f98d4a95bf18e5104665e, type: 3}
    - {fileID: -5843405009117717892, guid: 4d3fc5d2924f98d4a95bf18e5104665e, type: 3}
  m_AnimationClipSettings:
    serializedVersion: 2
    m_AdditiveReferencePoseClip: {fileID: 0}
    m_AdditiveReferencePoseTime: 0
    m_StartTime: 0
    m_StopTime: 1.5
    m_OrientationOffsetY: 0
    m_Level: 0
    m_CycleOffset: 0
    m_HasAdditiveReferencePose: 0
    m_LoopTime: 1
    m_LoopBlend: 0
    m_LoopBlendOrientation: 0
    m_LoopBlendPositionY: 0
    m_LoopBlendPositionXZ: 0
    m_KeepOriginalOrientation: 0
    m_KeepOriginalPositionY: 1
    m_KeepOriginalPositionXZ: 0
    m_HeightFromFeet: 0
    m_Mirror: 0
  m_EditorCurves:
  - curve:
      serializedVersion: 2
      m_Curve:
      - serializedVersion: 3
        time: 0
        value: 0
        inSlope: Infinity
        outSlope: Infinity
        tangentMode: 103
        weightedMode: 0
        inWeight: 0
        outWeight: 0
      - serializedVersion: 3
        time: 0.16666667
        value: 1
        inSlope: Infinity
        outSlope: Infinity
        tangentMode: 103
        weightedMode: 0
        inWeight: 0
        outWeight: 0
      - serializedVersion: 3
        time: 0.6666667
        value: 0
        inSlope: Infinity
        outSlope: Infinity
        tangentMode: 103
        weightedMode: 0
        inWeight: 0
        outWeight: 0
      - serializedVersion: 3
        time: 1
        value: 1
        inSlope: Infinity
        outSlope: Infinity
        tangentMode: 103
        weightedMode: 0
        inWeight: 0
        outWeight: 0
      - serializedVersion: 3
        time: 1.1666666
        value: 0
        inSlope: Infinity
        outSlope: Infinity
        tangentMode: 103
        weightedMode: 0
        inWeight: 0
        outWeight: 0
      - serializedVersion: 3
        time: 1.5
        value: 0
        inSlope: Infinity
        outSlope: Infinity
        tangentMode: 103
        weightedMode: 0
        inWeight: 0
        outWeight: 0
      m_PreInfinity: 2
      m_PostInfinity: 2
      m_RotationOrder: 4
    attribute: m_FlipX
    path: 
    classID: 212
    script: {fileID: 0}
  m_EulerEditorCurves: []
  m_HasGenericRootTransform: 0
  m_HasMotionFloatCurves: 0
  m_Events: []
