%YAML 1.1
%TAG !u! tag:unity3d.com,2011:
--- !u!74 &7400000
AnimationClip:
  m_ObjectHideFlags: 0
  m_CorrespondingSourceObject: {fileID: 0}
  m_PrefabInstance: {fileID: 0}
  m_PrefabAsset: {fileID: 0}
  m_Name: captain_flyin
  serializedVersion: 6
  m_Legacy: 1
  m_Compressed: 0
  m_UseHighQualityCurve: 1
  m_RotationCurves: []
  m_CompressedRotationCurves: []
  m_EulerCurves: []
  m_PositionCurves: []
  m_ScaleCurves: []
  m_FloatCurves:
  - curve:
      serializedVersion: 2
      m_Curve:
      - serializedVersion: 3
        time: 0
        value: -911
        inSlope: 0
        outSlope: 0
        tangentMode: 136
        weightedMode: 0
        inWeight: 0.33333334
        outWeight: 0.33333334
      - serializedVersion: 3
        time: 0.5833333
        value: -473
        inSlope: 501.4286
        outSlope: 501.4286
        tangentMode: 136
        weightedMode: 0
        inWeight: 0.33333334
        outWeight: 0.33333334
      - serializedVersion: 3
        time: 1.1666666
        value: -326
        inSlope: 0
        outSlope: 0
        tangentMode: 136
        weightedMode: 0
        inWeight: 0.33333334
        outWeight: 0.33333334
      - serializedVersion: 3
        time: 3.0833333
        value: -326
        inSlope: 0
        outSlope: 0
        tangentMode: 136
        weightedMode: 0
        inWeight: 0.33333334
        outWeight: 0.33333334
      - serializedVersion: 3
        time: 5.266667
        value: -709.1
        inSlope: 0
        outSlope: 0
        tangentMode: 136
        weightedMode: 0
        inWeight: 0.33333334
        outWeight: 0.33333334
      m_PreInfinity: 2
      m_PostInfinity: 2
      m_RotationOrder: 4
    attribute: m_AnchoredPosition.x
    path: 
    classID: 224
    script: {fileID: 0}
  m_PPtrCurves:
  - curve:
    - time: 0
      value: {fileID: 583630438881785103, guid: 4d3fc5d2924f98d4a95bf18e5104665e, type: 3}
    - time: 0.083333336
      value: {fileID: -8853437656593538964, guid: 4d3fc5d2924f98d4a95bf18e5104665e, type: 3}
    - time: 0.16666667
      value: {fileID: -461151315526802962, guid: 4d3fc5d2924f98d4a95bf18e5104665e, type: 3}
    - time: 0.25
      value: {fileID: -2208985956876977658, guid: 4d3fc5d2924f98d4a95bf18e5104665e, type: 3}
    - time: 0.28333333
      value: {fileID: 583630438881785103, guid: 4d3fc5d2924f98d4a95bf18e5104665e, type: 3}
    - time: 0.36666667
      value: {fileID: -8853437656593538964, guid: 4d3fc5d2924f98d4a95bf18e5104665e, type: 3}
    - time: 0.45
      value: {fileID: -461151315526802962, guid: 4d3fc5d2924f98d4a95bf18e5104665e, type: 3}
    - time: 0.53333336
      value: {fileID: -2208985956876977658, guid: 4d3fc5d2924f98d4a95bf18e5104665e, type: 3}
    - time: 0.5833333
      value: {fileID: 583630438881785103, guid: 4d3fc5d2924f98d4a95bf18e5104665e, type: 3}
    - time: 0.6666667
      value: {fileID: -8853437656593538964, guid: 4d3fc5d2924f98d4a95bf18e5104665e, type: 3}
    - time: 0.75
      value: {fileID: -461151315526802962, guid: 4d3fc5d2924f98d4a95bf18e5104665e, type: 3}
    - time: 0.8333333
      value: {fileID: -2208985956876977658, guid: 4d3fc5d2924f98d4a95bf18e5104665e, type: 3}
    - time: 0.8833333
      value: {fileID: 583630438881785103, guid: 4d3fc5d2924f98d4a95bf18e5104665e, type: 3}
    - time: 0.96666664
      value: {fileID: -8853437656593538964, guid: 4d3fc5d2924f98d4a95bf18e5104665e, type: 3}
    - time: 1.05
      value: {fileID: -461151315526802962, guid: 4d3fc5d2924f98d4a95bf18e5104665e, type: 3}
    - time: 1.1333333
      value: {fileID: -2208985956876977658, guid: 4d3fc5d2924f98d4a95bf18e5104665e, type: 3}
    - time: 1.1833333
      value: {fileID: 583630438881785103, guid: 4d3fc5d2924f98d4a95bf18e5104665e, type: 3}
    - time: 1.2666667
      value: {fileID: -8853437656593538964, guid: 4d3fc5d2924f98d4a95bf18e5104665e, type: 3}
    - time: 1.35
      value: {fileID: -461151315526802962, guid: 4d3fc5d2924f98d4a95bf18e5104665e, type: 3}
    - time: 1.4333333
      value: {fileID: -2208985956876977658, guid: 4d3fc5d2924f98d4a95bf18e5104665e, type: 3}
    - time: 1.4833333
      value: {fileID: 583630438881785103, guid: 4d3fc5d2924f98d4a95bf18e5104665e, type: 3}
    - time: 1.5666667
      value: {fileID: -8853437656593538964, guid: 4d3fc5d2924f98d4a95bf18e5104665e, type: 3}
    - time: 1.65
      value: {fileID: -461151315526802962, guid: 4d3fc5d2924f98d4a95bf18e5104665e, type: 3}
    - time: 1.7333333
      value: {fileID: -2208985956876977658, guid: 4d3fc5d2924f98d4a95bf18e5104665e, type: 3}
    - time: 1.9333333
      value: {fileID: 583630438881785103, guid: 4d3fc5d2924f98d4a95bf18e5104665e, type: 3}
    - time: 2.0166667
      value: {fileID: -8853437656593538964, guid: 4d3fc5d2924f98d4a95bf18e5104665e, type: 3}
    - time: 2.1
      value: {fileID: -461151315526802962, guid: 4d3fc5d2924f98d4a95bf18e5104665e, type: 3}
    - time: 2.1833334
      value: {fileID: -2208985956876977658, guid: 4d3fc5d2924f98d4a95bf18e5104665e, type: 3}
    - time: 2.2166667
      value: {fileID: 583630438881785103, guid: 4d3fc5d2924f98d4a95bf18e5104665e, type: 3}
    - time: 2.3
      value: {fileID: -8853437656593538964, guid: 4d3fc5d2924f98d4a95bf18e5104665e, type: 3}
    - time: 2.3833334
      value: {fileID: -461151315526802962, guid: 4d3fc5d2924f98d4a95bf18e5104665e, type: 3}
    - time: 2.4666667
      value: {fileID: -2208985956876977658, guid: 4d3fc5d2924f98d4a95bf18e5104665e, type: 3}
    - time: 2.5166667
      value: {fileID: 583630438881785103, guid: 4d3fc5d2924f98d4a95bf18e5104665e, type: 3}
    - time: 2.6
      value: {fileID: -8853437656593538964, guid: 4d3fc5d2924f98d4a95bf18e5104665e, type: 3}
    - time: 2.6833334
      value: {fileID: -461151315526802962, guid: 4d3fc5d2924f98d4a95bf18e5104665e, type: 3}
    - time: 2.7666667
      value: {fileID: -2208985956876977658, guid: 4d3fc5d2924f98d4a95bf18e5104665e, type: 3}
    - time: 2.8166666
      value: {fileID: 583630438881785103, guid: 4d3fc5d2924f98d4a95bf18e5104665e, type: 3}
    - time: 2.9
      value: {fileID: -8853437656593538964, guid: 4d3fc5d2924f98d4a95bf18e5104665e, type: 3}
    - time: 2.9833333
      value: {fileID: -461151315526802962, guid: 4d3fc5d2924f98d4a95bf18e5104665e, type: 3}
    - time: 3.0666666
      value: {fileID: -2208985956876977658, guid: 4d3fc5d2924f98d4a95bf18e5104665e, type: 3}
    - time: 3.1166666
      value: {fileID: 583630438881785103, guid: 4d3fc5d2924f98d4a95bf18e5104665e, type: 3}
    - time: 3.2
      value: {fileID: -8853437656593538964, guid: 4d3fc5d2924f98d4a95bf18e5104665e, type: 3}
    - time: 3.2833333
      value: {fileID: -461151315526802962, guid: 4d3fc5d2924f98d4a95bf18e5104665e, type: 3}
    - time: 3.3666666
      value: {fileID: -2208985956876977658, guid: 4d3fc5d2924f98d4a95bf18e5104665e, type: 3}
    - time: 3.4166667
      value: {fileID: 583630438881785103, guid: 4d3fc5d2924f98d4a95bf18e5104665e, type: 3}
    - time: 3.5
      value: {fileID: -8853437656593538964, guid: 4d3fc5d2924f98d4a95bf18e5104665e, type: 3}
    - time: 3.5833333
      value: {fileID: -461151315526802962, guid: 4d3fc5d2924f98d4a95bf18e5104665e, type: 3}
    - time: 3.6666667
      value: {fileID: -2208985956876977658, guid: 4d3fc5d2924f98d4a95bf18e5104665e, type: 3}
    - time: 3.8166666
      value: {fileID: 583630438881785103, guid: 4d3fc5d2924f98d4a95bf18e5104665e, type: 3}
    - time: 3.9
      value: {fileID: -8853437656593538964, guid: 4d3fc5d2924f98d4a95bf18e5104665e, type: 3}
    - time: 3.9833333
      value: {fileID: -461151315526802962, guid: 4d3fc5d2924f98d4a95bf18e5104665e, type: 3}
    - time: 4.0666666
      value: {fileID: -2208985956876977658, guid: 4d3fc5d2924f98d4a95bf18e5104665e, type: 3}
    - time: 4.1
      value: {fileID: 583630438881785103, guid: 4d3fc5d2924f98d4a95bf18e5104665e, type: 3}
    - time: 4.1833334
      value: {fileID: -8853437656593538964, guid: 4d3fc5d2924f98d4a95bf18e5104665e, type: 3}
    - time: 4.266667
      value: {fileID: -461151315526802962, guid: 4d3fc5d2924f98d4a95bf18e5104665e, type: 3}
    - time: 4.35
      value: {fileID: -2208985956876977658, guid: 4d3fc5d2924f98d4a95bf18e5104665e, type: 3}
    - time: 4.4
      value: {fileID: 583630438881785103, guid: 4d3fc5d2924f98d4a95bf18e5104665e, type: 3}
    - time: 4.483333
      value: {fileID: -8853437656593538964, guid: 4d3fc5d2924f98d4a95bf18e5104665e, type: 3}
    - time: 4.5666666
      value: {fileID: -461151315526802962, guid: 4d3fc5d2924f98d4a95bf18e5104665e, type: 3}
    - time: 4.65
      value: {fileID: -2208985956876977658, guid: 4d3fc5d2924f98d4a95bf18e5104665e, type: 3}
    - time: 4.7
      value: {fileID: 583630438881785103, guid: 4d3fc5d2924f98d4a95bf18e5104665e, type: 3}
    - time: 4.7833333
      value: {fileID: -8853437656593538964, guid: 4d3fc5d2924f98d4a95bf18e5104665e, type: 3}
    - time: 4.866667
      value: {fileID: -461151315526802962, guid: 4d3fc5d2924f98d4a95bf18e5104665e, type: 3}
    - time: 4.95
      value: {fileID: -2208985956876977658, guid: 4d3fc5d2924f98d4a95bf18e5104665e, type: 3}
    - time: 5
      value: {fileID: 583630438881785103, guid: 4d3fc5d2924f98d4a95bf18e5104665e, type: 3}
    - time: 5.0833335
      value: {fileID: -8853437656593538964, guid: 4d3fc5d2924f98d4a95bf18e5104665e, type: 3}
    - time: 5.1666665
      value: {fileID: -461151315526802962, guid: 4d3fc5d2924f98d4a95bf18e5104665e, type: 3}
    - time: 5.25
      value: {fileID: -2208985956876977658, guid: 4d3fc5d2924f98d4a95bf18e5104665e, type: 3}
    - time: 5.3
      value: {fileID: 583630438881785103, guid: 4d3fc5d2924f98d4a95bf18e5104665e, type: 3}
    - time: 5.383333
      value: {fileID: -8853437656593538964, guid: 4d3fc5d2924f98d4a95bf18e5104665e, type: 3}
    - time: 5.4666667
      value: {fileID: -461151315526802962, guid: 4d3fc5d2924f98d4a95bf18e5104665e, type: 3}
    - time: 5.55
      value: {fileID: -2208985956876977658, guid: 4d3fc5d2924f98d4a95bf18e5104665e, type: 3}
    - time: 5.8333335
      value: {fileID: 583630438881785103, guid: 4d3fc5d2924f98d4a95bf18e5104665e, type: 3}
    - time: 5.9166665
      value: {fileID: -8853437656593538964, guid: 4d3fc5d2924f98d4a95bf18e5104665e, type: 3}
    - time: 6
      value: {fileID: -461151315526802962, guid: 4d3fc5d2924f98d4a95bf18e5104665e, type: 3}
    - time: 6.0833335
      value: {fileID: -2208985956876977658, guid: 4d3fc5d2924f98d4a95bf18e5104665e, type: 3}
    - time: 6.116667
      value: {fileID: 583630438881785103, guid: 4d3fc5d2924f98d4a95bf18e5104665e, type: 3}
    - time: 6.2
      value: {fileID: -8853437656593538964, guid: 4d3fc5d2924f98d4a95bf18e5104665e, type: 3}
    - time: 6.2833333
      value: {fileID: -461151315526802962, guid: 4d3fc5d2924f98d4a95bf18e5104665e, type: 3}
    - time: 6.366667
      value: {fileID: -2208985956876977658, guid: 4d3fc5d2924f98d4a95bf18e5104665e, type: 3}
    - time: 6.4166665
      value: {fileID: 583630438881785103, guid: 4d3fc5d2924f98d4a95bf18e5104665e, type: 3}
    - time: 6.5
      value: {fileID: -8853437656593538964, guid: 4d3fc5d2924f98d4a95bf18e5104665e, type: 3}
    - time: 6.5833335
      value: {fileID: -461151315526802962, guid: 4d3fc5d2924f98d4a95bf18e5104665e, type: 3}
    - time: 6.6666665
      value: {fileID: -2208985956876977658, guid: 4d3fc5d2924f98d4a95bf18e5104665e, type: 3}
    - time: 6.7166667
      value: {fileID: 583630438881785103, guid: 4d3fc5d2924f98d4a95bf18e5104665e, type: 3}
    - time: 6.8
      value: {fileID: -8853437656593538964, guid: 4d3fc5d2924f98d4a95bf18e5104665e, type: 3}
    - time: 6.883333
      value: {fileID: -461151315526802962, guid: 4d3fc5d2924f98d4a95bf18e5104665e, type: 3}
    - time: 6.9666667
      value: {fileID: -2208985956876977658, guid: 4d3fc5d2924f98d4a95bf18e5104665e, type: 3}
    - time: 7.016667
      value: {fileID: 583630438881785103, guid: 4d3fc5d2924f98d4a95bf18e5104665e, type: 3}
    - time: 7.1
      value: {fileID: -8853437656593538964, guid: 4d3fc5d2924f98d4a95bf18e5104665e, type: 3}
    - time: 7.1833334
      value: {fileID: -461151315526802962, guid: 4d3fc5d2924f98d4a95bf18e5104665e, type: 3}
    - time: 7.266667
      value: {fileID: -2208985956876977658, guid: 4d3fc5d2924f98d4a95bf18e5104665e, type: 3}
    - time: 7.3166666
      value: {fileID: 583630438881785103, guid: 4d3fc5d2924f98d4a95bf18e5104665e, type: 3}
    - time: 7.4
      value: {fileID: -8853437656593538964, guid: 4d3fc5d2924f98d4a95bf18e5104665e, type: 3}
    - time: 7.483333
      value: {fileID: -461151315526802962, guid: 4d3fc5d2924f98d4a95bf18e5104665e, type: 3}
    - time: 7.5666666
      value: {fileID: -2208985956876977658, guid: 4d3fc5d2924f98d4a95bf18e5104665e, type: 3}
    attribute: m_Sprite
    path: 
    classID: 114
    script: {fileID: 11500000, guid: fe87c0e1cc204ed48ad3b37840f39efc, type: 3}
  m_SampleRate: 60
  m_WrapMode: 0
  m_Bounds:
    m_Center: {x: 0, y: 0, z: 0}
    m_Extent: {x: 0, y: 0, z: 0}
  m_ClipBindingConstant:
    genericBindings: []
    pptrCurveMapping: []
  m_AnimationClipSettings:
    serializedVersion: 2
    m_AdditiveReferencePoseClip: {fileID: 0}
    m_AdditiveReferencePoseTime: 0
    m_StartTime: 0
    m_StopTime: 7.5833335
    m_OrientationOffsetY: 0
    m_Level: 0
    m_CycleOffset: 0
    m_HasAdditiveReferencePose: 0
    m_LoopTime: 1
    m_LoopBlend: 0
    m_LoopBlendOrientation: 0
    m_LoopBlendPositionY: 0
    m_LoopBlendPositionXZ: 0
    m_KeepOriginalOrientation: 0
    m_KeepOriginalPositionY: 1
    m_KeepOriginalPositionXZ: 0
    m_HeightFromFeet: 0
    m_Mirror: 0
  m_EditorCurves:
  - curve:
      serializedVersion: 2
      m_Curve:
      - serializedVersion: 3
        time: 0
        value: -911
        inSlope: 0
        outSlope: 0
        tangentMode: 136
        weightedMode: 0
        inWeight: 0.33333334
        outWeight: 0.33333334
      - serializedVersion: 3
        time: 0.5833333
        value: -473
        inSlope: 501.4286
        outSlope: 501.4286
        tangentMode: 136
        weightedMode: 0
        inWeight: 0.33333334
        outWeight: 0.33333334
      - serializedVersion: 3
        time: 1.1666666
        value: -326
        inSlope: 0
        outSlope: 0
        tangentMode: 136
        weightedMode: 0
        inWeight: 0.33333334
        outWeight: 0.33333334
      - serializedVersion: 3
        time: 3.0833333
        value: -326
        inSlope: 0
        outSlope: 0
        tangentMode: 136
        weightedMode: 0
        inWeight: 0.33333334
        outWeight: 0.33333334
      - serializedVersion: 3
        time: 5.266667
        value: -709.1
        inSlope: 0
        outSlope: 0
        tangentMode: 136
        weightedMode: 0
        inWeight: 0.33333334
        outWeight: 0.33333334
      m_PreInfinity: 2
      m_PostInfinity: 2
      m_RotationOrder: 4
    attribute: m_AnchoredPosition.x
    path: 
    classID: 224
    script: {fileID: 0}
  m_EulerEditorCurves: []
  m_HasGenericRootTransform: 0
  m_HasMotionFloatCurves: 0
  m_Events: []
