%YAML 1.1
%TAG !u! tag:unity3d.com,2011:
--- !u!1 &1087822735191587587
GameObject:
  m_ObjectHideFlags: 0
  m_CorrespondingSourceObject: {fileID: 0}
  m_PrefabInstance: {fileID: 0}
  m_PrefabAsset: {fileID: 0}
  serializedVersion: 6
  m_Component:
  - component: {fileID: 1087822735191587585}
  - component: {fileID: 1087822735191587584}
  m_Layer: 0
  m_Name: AudioManager
  m_TagString: Untagged
  m_Icon: {fileID: 0}
  m_NavMeshLayer: 0
  m_StaticEditorFlags: 0
  m_IsActive: 1
--- !u!4 &1087822735191587585
Transform:
  m_ObjectHideFlags: 0
  m_CorrespondingSourceObject: {fileID: 0}
  m_PrefabInstance: {fileID: 0}
  m_PrefabAsset: {fileID: 0}
  m_GameObject: {fileID: 1087822735191587587}
  m_LocalRotation: {x: 0, y: 0, z: 0, w: 1}
  m_LocalPosition: {x: 474.88986, y: 283.48193, z: -28.384932}
  m_LocalScale: {x: 1, y: 1, z: 1}
  m_Children: []
  m_Father: {fileID: 0}
  m_RootOrder: 0
  m_LocalEulerAnglesHint: {x: 0, y: 0, z: 0}
--- !u!114 &1087822735191587584
MonoBehaviour:
  m_ObjectHideFlags: 0
  m_CorrespondingSourceObject: {fileID: 0}
  m_PrefabInstance: {fileID: 0}
  m_PrefabAsset: {fileID: 0}
  m_GameObject: {fileID: 1087822735191587587}
  m_Enabled: 1
  m_EditorHideFlags: 0
  m_Script: {fileID: 11500000, guid: 4f9f54c572ef3924cae07be190b5e45e, type: 3}
  m_Name: 
  m_EditorClassIdentifier: 
  sounds:
  - clip: {fileID: 8300000, guid: b4507e252adcbb14da79a970fbf99758, type: 3}
    name: waves
    volume: 1
    loop: 1
    source: {fileID: 0}
  - clip: {fileID: 8300000, guid: a7c13a3aaa3637047a65741579451413, type: 3}
    name: seagull
    volume: 0.2
    loop: 1
    source: {fileID: 0}
  - clip: {fileID: 8300000, guid: 6eca298d40ecef94eb73c7a5157f48dd, type: 3}
    name: click
    volume: 0.3
    loop: 0
    source: {fileID: 0}
  - clip: {fileID: 8300000, guid: 36872fdf5bb435b49b8c8079b1cb0e7b, type: 3}
    name: shipAmbience
    volume: 0.4
    loop: 1
    source: {fileID: 0}
  - clip: {fileID: 8300000, guid: 9d755d9929953f84cbd4a92aee61c862, type: 3}
    name: crowdAmbience
    volume: 1
    loop: 1
    source: {fileID: 0}
  - clip: {fileID: 8300000, guid: 7fd98a534acc0684eb18d07da8594687, type: 3}
    name: fire
    volume: 0.641
    loop: 1
    source: {fileID: 0}
  - clip: {fileID: 8300000, guid: 3ea741c88517f4143910787bda68704f, type: 3}
    name: rope
    volume: 1
    loop: 1
    source: {fileID: 0}
  - clip: {fileID: 8300000, guid: 025e01ef81d89f641ad32f4db8dfcf27, type: 3}
    name: victory
    volume: 0.086
    loop: 0
    source: {fileID: 0}
  - clip: {fileID: 8300000, guid: 52e7257544d740d43837d80051e9a112, type: 3}
    name: lock
    volume: 0.168
    loop: 0
    source: {fileID: 0}
  - clip: {fileID: 8300000, guid: 42e3f597cbbae284fbf83e0d98c5ea62, type: 3}
    name: unlock
    volume: 0.087
    loop: 0
    source: {fileID: 0}
  - clip: {fileID: 8300000, guid: ae59516c62f811143bd1a83334ae6b7f, type: 3}
    name: wheel
    volume: 0.264
    loop: 1
    source: {fileID: 0}
  - clip: {fileID: 8300000, guid: 5bdd41811fcd05646a685b8c49aa6a1d, type: 3}
    name: treasureAmbience
    volume: 0.148
    loop: 1
    source: {fileID: 0}
  - clip: {fileID: 8300000, guid: 739174ccbca42d34c88579866c1e36aa, type: 3}
    name: impact3
    volume: 0.753
    loop: 0
    source: {fileID: 0}
  - clip: {fileID: 8300000, guid: 8850799989428f74e89e5de29cd39314, type: 3}
    name: blowing
    volume: 0.878
    loop: 1
    source: {fileID: 0}
  - clip: {fileID: 8300000, guid: 48282bcb1fa50394ca61a2e1e7156230, type: 3}
    name: climbingMusic
    volume: 0.086
    loop: 1
    source: {fileID: 0}
  - clip: {fileID: 8300000, guid: 8075a7475b3e4da4a98bca308136d22c, type: 3}
    name: player_fall
    volume: 0.086
    loop: 0
    source: {fileID: 0}
  - clip: {fileID: 8300000, guid: c783e35aa1837d647867cc5a1b398878, type: 3}
    name: curtain
    volume: 0.086
    loop: 0
    source: {fileID: 0}
  - clip: {fileID: 8300000, guid: e0cb1ba2bac38e1498b7a61ef4584574, type: 3}
    name: credits
    volume: 0.086
    loop: 1
    source: {fileID: 0}
  - clip: {fileID: 8300000, guid: dad91a71630d4ec4bab73311ccd4de60, type: 3}
    name: delRioBravo
    volume: 0.113
    loop: 1
    source: {fileID: 0}
  - clip: {fileID: 8300000, guid: 8e83fe19c4fd9634eaa1674b96cddd25, type: 3}
    name: troubleWithTribals
    volume: 0.113
    loop: 1
    source: {fileID: 0}
  - clip: {fileID: 8300000, guid: ba9cc060d11a0a741b6828606651013d, type: 3}
    name: rollinAt5
    volume: 0.259
    loop: 1
    source: {fileID: 0}
  - clip: {fileID: 8300000, guid: 2b2af8a9959dc4449925d11de190cda7, type: 3}
    name: deuces
    volume: 0.168
    loop: 1
    source: {fileID: 0}
