%YAML 1.1
%TAG !u! tag:unity3d.com,2011:
--- !u!74 &7400000
AnimationClip:
  m_ObjectHideFlags: 0
  m_CorrespondingSourceObject: {fileID: 0}
  m_PrefabInstance: {fileID: 0}
  m_PrefabAsset: {fileID: 0}
  m_Name: BottleAnimation
  serializedVersion: 6
  m_Legacy: 0
  m_Compressed: 0
  m_UseHighQualityCurve: 1
  m_RotationCurves: []
  m_CompressedRotationCurves: []
  m_EulerCurves: []
  m_PositionCurves: []
  m_ScaleCurves: []
  m_FloatCurves: []
  m_PPtrCurves:
  - curve:
    - time: 0
      value: {fileID: -6830134789838305545, guid: 0cd343dc8f162e34e906d6cbf66e50e3, type: 3}
    - time: 0.3
      value: {fileID: 8158540734083975026, guid: 0cd343dc8f162e34e906d6cbf66e50e3, type: 3}
    - time: 0.48333332
      value: {fileID: -4719659047664617612, guid: 0cd343dc8f162e34e906d6cbf66e50e3, type: 3}
    - time: 0.85
      value: {fileID: 5727693005065209619, guid: 0cd343dc8f162e34e906d6cbf66e50e3, type: 3}
    - time: 1.15
      value: {fileID: 4978102981440896428, guid: 0cd343dc8f162e34e906d6cbf66e50e3, type: 3}
    - time: 1.2666667
      value: {fileID: -1733068567449316236, guid: 0cd343dc8f162e34e906d6cbf66e50e3, type: 3}
    - time: 1.5666667
      value: {fileID: 4604830412426798997, guid: 0cd343dc8f162e34e906d6cbf66e50e3, type: 3}
    - time: 1.9333333
      value: {fileID: -9169993277398368277, guid: 0cd343dc8f162e34e906d6cbf66e50e3, type: 3}
    - time: 2.2833333
      value: {fileID: -6633052616009659238, guid: 0cd343dc8f162e34e906d6cbf66e50e3, type: 3}
    - time: 2.4166667
      value: {fileID: -6530597102024896753, guid: 0cd343dc8f162e34e906d6cbf66e50e3, type: 3}
    - time: 2.7166667
      value: {fileID: 5376247207271912348, guid: 0cd343dc8f162e34e906d6cbf66e50e3, type: 3}
    - time: 3.0666666
      value: {fileID: 1652131006480606929, guid: 0cd343dc8f162e34e906d6cbf66e50e3, type: 3}
    - time: 3.25
      value: {fileID: -2047191276494409378, guid: 0cd343dc8f162e34e906d6cbf66e50e3, type: 3}
    - time: 3.55
      value: {fileID: -5372736782893104294, guid: 0cd343dc8f162e34e906d6cbf66e50e3, type: 3}
    - time: 3.85
      value: {fileID: 5370225112762950697, guid: 0cd343dc8f162e34e906d6cbf66e50e3, type: 3}
    - time: 4.0333333
      value: {fileID: -5408087391479035841, guid: 0cd343dc8f162e34e906d6cbf66e50e3, type: 3}
    - time: 4.3333335
      value: {fileID: 4491785630704895651, guid: 0cd343dc8f162e34e906d6cbf66e50e3, type: 3}
    - time: 4.7
      value: {fileID: 4683415579402327054, guid: 0cd343dc8f162e34e906d6cbf66e50e3, type: 3}
    - time: 5
      value: {fileID: 1373684666034423789, guid: 0cd343dc8f162e34e906d6cbf66e50e3, type: 3}
    - time: 5.1833334
      value: {fileID: 750133586093814441, guid: 0cd343dc8f162e34e906d6cbf66e50e3, type: 3}
    - time: 5.483333
      value: {fileID: 8587468789644223581, guid: 0cd343dc8f162e34e906d6cbf66e50e3, type: 3}
    - time: 5.7833333
      value: {fileID: -3840240393132820274, guid: 0cd343dc8f162e34e906d6cbf66e50e3, type: 3}
    - time: 5.9666667
      value: {fileID: 3858754180155590792, guid: 0cd343dc8f162e34e906d6cbf66e50e3, type: 3}
    - time: 6.3166666
      value: {fileID: 1569773328104242462, guid: 0cd343dc8f162e34e906d6cbf66e50e3, type: 3}
    - time: 6.616667
      value: {fileID: -161849326600017611, guid: 0cd343dc8f162e34e906d6cbf66e50e3, type: 3}
    - time: 6.8
      value: {fileID: 6925811699893171435, guid: 0cd343dc8f162e34e906d6cbf66e50e3, type: 3}
    - time: 7.1
      value: {fileID: 5751506262357208332, guid: 0cd343dc8f162e34e906d6cbf66e50e3, type: 3}
    - time: 7.4666667
      value: {fileID: -986684399835943199, guid: 0cd343dc8f162e34e906d6cbf66e50e3, type: 3}
    - time: 7.766667
      value: {fileID: 2576433661616689435, guid: 0cd343dc8f162e34e906d6cbf66e50e3, type: 3}
    - time: 7.883333
      value: {fileID: -2554634844109365267, guid: 0cd343dc8f162e34e906d6cbf66e50e3, type: 3}
    - time: 8.183333
      value: {fileID: 3429663056491666505, guid: 0cd343dc8f162e34e906d6cbf66e50e3, type: 3}
    - time: 8.55
      value: {fileID: 6576176045210859354, guid: 0cd343dc8f162e34e906d6cbf66e50e3, type: 3}
    - time: 8.733334
      value: {fileID: -1137554769691406514, guid: 0cd343dc8f162e34e906d6cbf66e50e3, type: 3}
    - time: 9.033334
      value: {fileID: 7956206498760830576, guid: 0cd343dc8f162e34e906d6cbf66e50e3, type: 3}
    attribute: m_Sprite
    path: 
    classID: 212
    script: {fileID: 0}
  m_SampleRate: 60
  m_WrapMode: 0
  m_Bounds:
    m_Center: {x: 0, y: 0, z: 0}
    m_Extent: {x: 0, y: 0, z: 0}
  m_ClipBindingConstant:
    genericBindings:
    - serializedVersion: 2
      path: 0
      attribute: 0
      script: {fileID: 0}
      typeID: 212
      customType: 23
      isPPtrCurve: 1
    pptrCurveMapping:
    - {fileID: -6830134789838305545, guid: 0cd343dc8f162e34e906d6cbf66e50e3, type: 3}
    - {fileID: 8158540734083975026, guid: 0cd343dc8f162e34e906d6cbf66e50e3, type: 3}
    - {fileID: -4719659047664617612, guid: 0cd343dc8f162e34e906d6cbf66e50e3, type: 3}
    - {fileID: 5727693005065209619, guid: 0cd343dc8f162e34e906d6cbf66e50e3, type: 3}
    - {fileID: 4978102981440896428, guid: 0cd343dc8f162e34e906d6cbf66e50e3, type: 3}
    - {fileID: -1733068567449316236, guid: 0cd343dc8f162e34e906d6cbf66e50e3, type: 3}
    - {fileID: 4604830412426798997, guid: 0cd343dc8f162e34e906d6cbf66e50e3, type: 3}
    - {fileID: -9169993277398368277, guid: 0cd343dc8f162e34e906d6cbf66e50e3, type: 3}
    - {fileID: -6633052616009659238, guid: 0cd343dc8f162e34e906d6cbf66e50e3, type: 3}
    - {fileID: -6530597102024896753, guid: 0cd343dc8f162e34e906d6cbf66e50e3, type: 3}
    - {fileID: 5376247207271912348, guid: 0cd343dc8f162e34e906d6cbf66e50e3, type: 3}
    - {fileID: 1652131006480606929, guid: 0cd343dc8f162e34e906d6cbf66e50e3, type: 3}
    - {fileID: -2047191276494409378, guid: 0cd343dc8f162e34e906d6cbf66e50e3, type: 3}
    - {fileID: -5372736782893104294, guid: 0cd343dc8f162e34e906d6cbf66e50e3, type: 3}
    - {fileID: 5370225112762950697, guid: 0cd343dc8f162e34e906d6cbf66e50e3, type: 3}
    - {fileID: -5408087391479035841, guid: 0cd343dc8f162e34e906d6cbf66e50e3, type: 3}
    - {fileID: 4491785630704895651, guid: 0cd343dc8f162e34e906d6cbf66e50e3, type: 3}
    - {fileID: 4683415579402327054, guid: 0cd343dc8f162e34e906d6cbf66e50e3, type: 3}
    - {fileID: 1373684666034423789, guid: 0cd343dc8f162e34e906d6cbf66e50e3, type: 3}
    - {fileID: 750133586093814441, guid: 0cd343dc8f162e34e906d6cbf66e50e3, type: 3}
    - {fileID: 8587468789644223581, guid: 0cd343dc8f162e34e906d6cbf66e50e3, type: 3}
    - {fileID: -3840240393132820274, guid: 0cd343dc8f162e34e906d6cbf66e50e3, type: 3}
    - {fileID: 3858754180155590792, guid: 0cd343dc8f162e34e906d6cbf66e50e3, type: 3}
    - {fileID: 1569773328104242462, guid: 0cd343dc8f162e34e906d6cbf66e50e3, type: 3}
    - {fileID: -161849326600017611, guid: 0cd343dc8f162e34e906d6cbf66e50e3, type: 3}
    - {fileID: 6925811699893171435, guid: 0cd343dc8f162e34e906d6cbf66e50e3, type: 3}
    - {fileID: 5751506262357208332, guid: 0cd343dc8f162e34e906d6cbf66e50e3, type: 3}
    - {fileID: -986684399835943199, guid: 0cd343dc8f162e34e906d6cbf66e50e3, type: 3}
    - {fileID: 2576433661616689435, guid: 0cd343dc8f162e34e906d6cbf66e50e3, type: 3}
    - {fileID: -2554634844109365267, guid: 0cd343dc8f162e34e906d6cbf66e50e3, type: 3}
    - {fileID: 3429663056491666505, guid: 0cd343dc8f162e34e906d6cbf66e50e3, type: 3}
    - {fileID: 6576176045210859354, guid: 0cd343dc8f162e34e906d6cbf66e50e3, type: 3}
    - {fileID: -1137554769691406514, guid: 0cd343dc8f162e34e906d6cbf66e50e3, type: 3}
    - {fileID: 7956206498760830576, guid: 0cd343dc8f162e34e906d6cbf66e50e3, type: 3}
  m_AnimationClipSettings:
    serializedVersion: 2
    m_AdditiveReferencePoseClip: {fileID: 0}
    m_AdditiveReferencePoseTime: 0
    m_StartTime: 0
    m_StopTime: 9.05
    m_OrientationOffsetY: 0
    m_Level: 0
    m_CycleOffset: 0
    m_HasAdditiveReferencePose: 0
    m_LoopTime: 1
    m_LoopBlend: 0
    m_LoopBlendOrientation: 0
    m_LoopBlendPositionY: 0
    m_LoopBlendPositionXZ: 0
    m_KeepOriginalOrientation: 0
    m_KeepOriginalPositionY: 1
    m_KeepOriginalPositionXZ: 0
    m_HeightFromFeet: 0
    m_Mirror: 0
  m_EditorCurves: []
  m_EulerEditorCurves: []
  m_HasGenericRootTransform: 0
  m_HasMotionFloatCurves: 0
  m_Events: []
